<!-- Public Domain. SVG minimized for space. See '3RD_PARTY_LICENSES.md' for more details -->
<svg xmlns="http://www.w3.org/2000/svg" xml:space="preserve" width="986.2" height="212.4" version="1.1">
  <g id="g55" fill="#1c1e20" transform="translate(-865.5 -658) scale(1.4152)">
    <path id="path41" d="M956.2 507.7c-8.8 0-17.4 3.3-23.7 9.6-6.3 6.3-9.5 15-9.5 23.7a34 34 0 0 0 9.3 23.8 32.7 32.7 0 0 0 23.6 9.7c8.8 0 17.4-3.3 23.7-9.6 6.3-6.3 9.5-15 9.5-23.7a34 34 0 0 0-9.3-23.8 33.3 33.3 0 0 0-23.6-9.7zm17.6 37.3c-.2 1.2-.6 2.4-1 3.6a19.1 19.1 0 0 1-3.7 5.9l-2.6 2.2c-1 .6-2 1.2-3.1 1.6a14 14 0 0 1-3.5 1 23 23 0 0 1-7.4-.1 20.1 20.1 0 0 1-6.6-2.6 17.8 17.8 0 0 1-4.7-4.9 19.1 19.1 0 0 1-2.9-10.7c0-1.3.1-2.6.4-3.9.2-1.2.6-2.4 1-3.6a19.1 19.1 0 0 1 3.7-5.9l2.6-2.2c1-.6 2-1.2 3.1-1.6a14 14 0 0 1 3.5-1 23 23 0 0 1 7.4.1 20.1 20.1 0 0 1 6.6 2.6 17.8 17.8 0 0 1 4.7 4.9 19.1 19.1 0 0 1 2.9 10.7l-.4 3.9z" class="st0"/>
    <path id="path43" d="M832.2 482a75 75 0 0 0-29.7-14.5 92.3 92.3 0 0 0-18.9-2.4c-4.7-.2-9.5-.1-14.2-.1h-67.3l-14.2.1c-6.4.2-12.6.9-18.9 2.4a74.5 74.5 0 0 0 .1 145 92.3 92.3 0 0 0 18.9 2.4c4.7.2 9.5.1 14.2.1h67.3l14.2-.1c6.4-.2 12.6-.9 18.9-2.4A74.5 74.5 0 0 0 832.2 482zm-32.9 78.2c-3.3 2.3-7 3.7-10.9 4.3-3.9.6-7.9.5-11.8.5h-81.5c-4 0-7.9.1-11.8-.5a24.6 24.6 0 0 1 0-49c3.9-.6 7.9-.5 11.8-.5h81.5c4 0 7.9-.1 11.8.5a24.6 24.6 0 0 1 10.9 44.7z" class="st0"/>
    <path id="path45" d="m1225.8 539.2-.1 5.3-.4 3.4c-.4 2.1-1.1 4.1-2.2 5.9a15.3 15.3 0 0 1-12.8 6.7c-5.1.1-10-2-12.7-6.6a18.9 18.9 0 0 1-2.2-6c-.5-2.8-.7-5.8-.7-8.6l-.1-5.6V508.9h-15.2v25.9l.1 7.5c.1 1.8.1 3.7.3 5.5.4 4.3 1.2 8.5 3.1 12.5 4 8.1 11.8 12.8 20.5 13.8 4.3.5 8.7.1 12.8-1.1 4-1.2 8.2-3.2 11.1-6.3l.4 6.2h13.3v-64h-15.2z" class="st0"/>
    <path id="path47" d="M1307.4 547.9c-2.2-6.2-7.6-10-13.3-12.2-3.2-1.3-6.5-2-9.8-2.8a69.6 69.6 0 0 1-8.1-2.2 9.5 9.5 0 0 1-3.5-2.4 4 4 0 0 1-1-3.3c.2-1.4 1-2.6 2.1-3.5.8-.6 1.6-1.1 2.5-1.4 1.2-.5 2.4-.7 3.6-.9 2.5-.3 5-.1 7.4.4a32 32 0 0 1 10.3 4.2l7.6-10.4a39.2 39.2 0 0 0-27.4-7.1 30 30 0 0 0-7.8 2.1 21.4 21.4 0 0 0-8.6 6.3c-1.7 2-2.9 4.4-3.6 6.9a16.5 16.5 0 0 0 4.9 16.9 37.4 37.4 0 0 0 17.1 6.8c2 .4 4 .8 6 1.4 1.6.5 3.3 1 4.7 1.9 1.1.7 2.2 1.6 2.9 2.7.6 1 .9 2.1.8 3.2-.1 1.1-.5 2-1.2 2.9-.8 1-1.8 1.7-2.9 2.3-1.5.7-3.1 1.1-4.7 1.3a35.9 35.9 0 0 1-14-1.8 35.8 35.8 0 0 1-9.7-5.5l-8.1 10.8a45.9 45.9 0 0 0 26.5 10.3c2.8.1 5.5-.1 8.3-.5 3.5-.6 7-1.7 10.1-3.6a19.7 19.7 0 0 0 9.8-14.5 18 18 0 0 0-.9-8.3z" class="st0"/>
    <path id="path49" d="M1038.3 559c-3.5.8-7.3.7-10.8-.4a17.1 17.1 0 0 1-8.7-6.3 20.5 20.5 0 0 1-1.2-20.8c1.8-3.4 4.4-5.7 7.9-7.2a20.8 20.8 0 0 1 10.7-1.4c3.7.4 7.1 1.8 10.2 3.8l9.2-11.6a36.3 36.3 0 0 0-37.1-4.2 31 31 0 0 0-14 13.3 37 37 0 0 0 2 37.4c3.8 5.5 9.2 9.4 15.5 11.5 6.2 2.1 13 2.5 19.4 1.1a33.3 33.3 0 0 0 17-9.3l-10.4-10.8a23.5 23.5 0 0 1-9.7 4.9z" class="st0"/>
    <path id="rect51" d="M1147 475h16v98h-16z" class="st0"/>
    <path id="path53" d="m1114.2 539.2-.1 5.3-.4 3.4c-.4 2.1-1.1 4.1-2.2 5.9a15.3 15.3 0 0 1-12.8 6.7c-5.1.1-10-2-12.7-6.6a18.9 18.9 0 0 1-2.2-6c-.5-2.8-.7-5.8-.7-8.6l-.1-5.6V508.9h-15.2v25.9l.1 7.5c.1 1.8.1 3.7.3 5.5.4 4.3 1.2 8.5 3.1 12.5 4 8.1 11.8 12.8 20.5 13.8 4.3.5 8.7.1 12.8-1.1 4-1.2 8.2-3.2 11.1-6.3l.4 6.2h12.9v-64h-14.8z" class="st0"/>
  </g>
</svg>
