<!-- CC-BY-SA 3.0 by Tjdrum2000 on Logopedia. SVG altered minimized for space. See '3RD_PARTY_LICENSES.md' for more details -->
<!-- Alterations: removed '95' text -->
<svg xmlns="http://www.w3.org/2000/svg" width="575" height="116.52" viewBox="0 60 575 116.52">
  <path d="m180.87 121.95-10.5 41.15-10.41-41.15h-18.1l-9.74 41.64-10.31-41.64h-21.66l19.7 71.25h19.68l9.75-40.54 10.03 40.53h19.3l15.83-56.99h21.1v-14.25zm123.36 0v22.97c-1.69-2-3.66-3.5-5.82-4.4-2.05-1-4.4-1.51-7.21-1.51-6.65 0-12 2.51-16.03 7.63a27.63 27.63 0 0 0-5.25 12.02v-.2c0-6.81-1.4-11.73-4.22-14.84-2.81-3.11-7.31-4.62-13.4-4.62-3.56 0-6.75.8-9.38 2.3-2.62 1.42-4.69 3.62-6.28 6.63v-7.53h-19.4v52.78h20.9v-32.4c0-2.4.47-4.21 1.5-5.51 1.03-1.42 2.44-2.02 4.31-2.02 1.79 0 3 .6 3.85 1.81.84 1.2 1.21 3.11 1.21 5.62v32.5h20.9v-17.84c.9 4.71 2.6 8.7 5.07 11.94 3.85 4.91 9.1 7.32 15.75 7.32 3.19 0 6-.6 8.44-1.9 2.43-1.41 4.5-3.42 6.18-6.13l.1 6.62h19.77v-17.5a24.64 24.64 0 0 0 7.04 11.28c5.43 5.13 12.47 7.63 21.37 7.63 8.82 0 15.94-2.5 21.38-7.63 5.43-5.11 8.15-11.83 8.15-20.16 0-1.78-.12-3.48-.37-5.1l10.4 31.48h15.28l7.5-29.5 7.32 29.5h15.46l11.07-33.85c.24 1.49.72 2.92 1.4 4.25a14.37 14.37 0 0 0 4.5 5.12c3.1 2.4 8.25 4.11 15.66 5.42l5.72.8c4.4.51 6.65 1.6 6.65 3.22 0 1-.66 2-2.06 2.5-1.41.71-3.28 1.01-5.62 1.01-3.47 0-6.29-.5-8.16-1.5a6.8 6.8 0 0 1-3.75-4.42l-17.16 2c1.5 5.42 4.6 9.44 9.47 12.25 4.79 2.8 11.06 4.21 18.75 4.21 8.25 0 14.91-1.8 19.97-5.32 5.06-3.42 7.6-7.93 7.6-13.55 0-2.1-.48-4.22-1.32-6.23-.75-1.8-1.97-3.4-3.66-4.91-2.62-2.2-7.31-3.92-14.06-5.12l-7.31-1.1c-5.53-.7-8.44-1.91-8.44-3.62 0-1.1.56-1.9 1.6-2.5 1.03-.5 2.52-.8 4.5-.8 2.62 0 4.77.4 6.28 1.2 1.5.7 2.8 1.8 3.75 3.42l16.4-2.71a21.4 21.4 0 0 0-9.28-10.54c-4.22-2.4-9.65-3.6-16.12-3.6-7.78 0-13.87 1.7-18.56 5a19.1 19.1 0 0 0-2.32 1.96l1.76-5.37h-14.73l-7.77 26.6-6.85-26.6h-15.84l-6.66 25.89-7.59-25.89h-20.81l4.12 12.47a25.17 25.17 0 0 0-4.87-6.24c-5.44-5.02-12.56-7.63-21.37-7.63-8.91 0-15.94 2.6-21.47 7.63a24.89 24.89 0 0 0-6.95 11.27v-35.96zM193.9 140.41v52.78h21.65v-52.78zm103.97 11.85c2.16 0 3.85.6 4.87 1.7 1.04 1.3 1.5 2.9 1.5 5.02v15.05c0 2-.46 3.71-1.69 4.92a5.42 5.42 0 0 1-4.3 2c-2.44 0-4.13-1.1-5.25-3.3-1.12-2.12-1.69-5.52-1.69-10.44 0-5.12.57-8.94 1.69-11.24 1.03-2.41 2.7-3.71 4.87-3.71zm55.78 0c2.52 0 4.3 1.2 5.53 3.5 1.13 2.41 1.78 6.03 1.78 11.05 0 5.01-.65 8.63-1.78 11.04-1.22 2.3-3 3.5-5.53 3.5-2.53 0-4.5-1.2-5.63-3.5-1.12-2.21-1.68-5.93-1.68-11.04 0-5.03.56-8.64 1.68-11.04a5.94 5.94 0 0 1 5.63-3.51z" style="mix-blend-mode:normal" transform="translate(68.3 -18.08)"/>
  <path d="m102.9 175.57 30.4-73.17c-13.33-14.76-29.92-22-49.83-21.62L52.9 154.62c18.67-2.48 35.24 4.56 50.02 20.95z"/>
  <path fill="#f8682c" d="m18.87 81.25-1.24 3.14h3.9l1.33-3.33zm4.29-10.2-1.34 3.15 4-.1 1.34-3.33zm2.1 15.93-1.91 4.47 5.43-.66 2-4.66zm4.28-10.3-1.9 4.49 5.42-.67 1.9-4.67zm2.38 17.15-2.19 5.34 7.15-.2 2.28-5.61zm4.3-10.2-2.2 5.33 7.05-.27 2.29-5.44zm4.47 13.44-3.05 7.53 8.86-.48 3.05-7.34zm4.28-10.2-3.14 7.43 8.86-.47 3.06-7.34zm11.9 22.1 3.54-8.48-10.48.86-3.43 8.38zm4.3-10.28 3.44-8.39-10.39.76-3.53 8.48Z"/>
  <path fill="#00b4f1" d="m5.72 113.08-1.33 3.14 4-.1 1.42-3.24zm4.29-10.3-1.34 3.05 4-.09L14 102.6zm2.1 15.92-1.81 4.47 5.33-.66 1.9-4.67zm4.28-10.29-1.8 4.47 5.33-.66 1.9-4.57zm2.39 17.15-2.2 5.43 7.15-.28 2.19-5.53zm4.28-10.3-2.28 5.44 7.25-.29 2.19-5.53zm4.47 13.63-3.05 7.34 8.77-.37 3.14-7.44zm4.2-10.29-3.14 7.53 8.96-.47 3.04-7.43zm4.95 14.49-3.42 8.47 10.48-.86 3.52-8.48zm4.29-10.3-3.43 8.47 10.48-.83 3.44-8.5z"/>
  <path d="M1.24 123.75 0 126.9l4-.1 1.34-3.34zm13.24-31.82-1.33 3.13h4l1.43-3.33zm13.05-31.55-1.32 3.05 4.08-.1L31.73 60zm-19.9 68.99-1.72 4.39 5.34-.59 1.9-4.66zm13.24-31.73-1.9 4.48 5.33-.66 2-4.68zm16.68-27.91 1.9-4.58-5.43.77-1.81 4.47zm-23.25 66.5-2.2 5.43 7.15-.29 2.29-5.52zm20.39-32.1-7.16.37-2.28 5.34 7.15-.17zm6-31.27L38.5 78.2l7.05-.29 2.29-5.42zm-11.82 73.66 3.05-7.43-8.76.38-3.14 7.41zm16.2-39.07-8.86.28-3.05 7.53 8.87-.47zm13.15-31.82-8.77.39-3.14 7.53 8.86-.5zm-18.96 75.74 3.52-8.39-10.38.76-3.53 8.39zm6.28-39.34-3.62 8.48 10.58-.86 3.43-8.48zM58.7 80.3l-3.54 8.48 10.39-.86 3.53-8.37zm-3.54 64.4-11.14.68-3.9 9.33 11.33-1.05zm4.5-10.67-11.26.68-3.8 9.33 11.24-.95zm4.47-10.86-11.24.67-3.82 9.25 11.34-.96zm4.38-10.48-11.25.67-3.8 9.24 11.24-.95zm4.38-10.66-11.14.66-3.91 9.25 11.33-.87zm4.38-10.67-11.15.76-3.9 9.34 11.33-1.05Zm4.48-10.58-11.24.66-3.82 9.34 11.25-1.05z"/>
  <path fill="#f8682c" d="M81.94 91.03c-.88 0-1.8 0-2.73.03l-9.63 23.25c7.1-.28 13.35.5 18.65 2.19l9.72-23.34c-4.17-1.42-9.5-2.1-16-2.13Z"/>
  <path fill="#91c300" d="M120.34 104.31a37.33 37.33 0 0 0-15.43-9.53l-9.92 23.92s3.61 1.08 6.67 2.76a38.94 38.94 0 0 1 8.95 6.38z"/>
  <path fill="#ffc300" d="M107.76 134.52a34.24 34.24 0 0 0-15.63-8.96l-9.52 22.96c5.52 1.9 10.67 5.05 15.63 9.24z"/>
  <path fill="#00b4f1" d="M70.22 121.42c-1.2 0-2.41.05-3.64.13l-9.35 22.59c5.58-.28 11.82.4 18.8 1.9l9.24-22.3a47.74 47.74 0 0 0-15.05-2.32z"/>
  <path fill-rule="evenodd" d="m570.7 126.06-.93-2.07c.55-.2.87-.62.87-1.16 0-.76-.63-1.3-1.54-1.3h-1.91v4.53h.67v-1.92h1.24l.86 1.92h.75zm-2.84-2.45v-1.5h1.24c.5 0 .83.26.83.7 0 .5-.34.8-.91.8zm1.07-3.72a3.9 3.9 0 1 0-.11 7.8 3.9 3.9 0 0 0 .11-7.8zm-.01.56a3.34 3.34 0 1 1-.1 6.7 3.34 3.34 0 0 1 .1-6.7zM373.29 77.1l-1.03-2.28c.6-.22.96-.69.96-1.29 0-.83-.7-1.42-1.7-1.42h-2.1v4.99h.73v-2.12h1.37l.95 2.12h.82zm-3.14-2.7v-1.66h1.37c.56 0 .9.3.9.78 0 .54-.36.87-.99.87zm1.18-4.1a4.3 4.3 0 1 0-.12 8.6 4.3 4.3 0 0 0 .12-8.6zm-.01.61a3.68 3.68 0 1 1-.1 7.38 3.68 3.68 0 0 1 .1-7.38z" clip-rule="evenodd" overflow="visible"/>
  <path d="M290.3 111.24V96.37h7.06v-4.44h-7.07v-7.47l-5.76.55v6.9l-10.93.02-.04-.5a5.73 5.73 0 0 1 1.2-4.23c.7-.81 1.8-1.35 3.51-1.34 1.45 0 2.88.28 4.29.59v-4.9c-2.14-.4-3.7-.58-5.37-.52-3.1.11-5.34 1.06-6.84 2.82-1.5 1.78-2.27 4.56-2.33 8.08h-5.37v4.43h5.33v26.2h5.67v-26.2h10.88V111c0 2.86.15 4.7.4 5.96.19.95.42 1.92.97 2.7a8.7 8.7 0 0 0 3.42 2.84c1.21.57 2.82.94 4.84.94 1.97 0 4.27-.5 4.27-.5v-4.98s-1.94.4-3.72.4c-1.84 0-2.92-.43-3.47-1.18-.56-.76-.95-2.78-.95-5.94zm-172.72-29.7v5.63h5.57v-5.64zm-47.9 0v41.02h5.38V89.77l12.02 32.79h4.34l12.23-32.53v32.53h5.95V81.54h-8.1l-11.77 32.34-11.96-32.34Zm119.56 41.9c4.2 0 7.6-1.53 10.22-4.53 2.64-3 3.83-6.93 3.83-11.68 0-4.74-1.22-8.65-3.83-11.68-2.55-2.97-5.93-4.52-10.22-4.52a12.8 12.8 0 0 0-10.15 4.52c-2.56 2.98-3.83 6.93-3.83 11.68 0 4.76 1.27 8.7 3.83 11.68a12.8 12.8 0 0 0 10.15 4.53zm-60.64-16.2c0 4.83 1.11 8.73 3.52 11.66a12.1 12.1 0 0 0 9.76 4.55c3.12 0 5.82-.95 7.96-2.93 2.04-1.87 3.46-4.55 4.06-7.86l.1-.6-5.26-1-.1.61c-.39 2.23-1.21 3.98-2.35 5.07a6.1 6.1 0 0 1-4.32 1.6c-2.25 0-3.94-.86-5.4-2.95-1.35-1.95-2.02-4.7-2.02-8.16 0-3.45.66-6.19 2.11-8.27 1.48-1.95 3.3-2.94 5.53-2.94 1.7 0 3 .62 4.1 1.8a8.83 8.83 0 0 1 2.26 5.08l.08.62 5.38-.86-.09-.6c-.5-3.3-1.76-6.15-3.76-8.09-2-1.93-4.64-2.94-7.6-2.94-4.2 0-7.64 1.5-10.14 4.54-2.55 3.07-3.82 6.92-3.82 11.67zm132.76 0c0-4.75-1.3-8.68-3.81-11.68-2.53-3-6.04-4.53-10.25-4.53s-7.56 1.58-10.14 4.53c-2.59 2.95-3.93 6.93-3.93 11.67 0 4.76 1.33 8.66 3.92 11.68a12.76 12.76 0 0 0 10.15 4.53c4.11 0 7.64-1.5 10.24-4.53 2.55-2.97 3.82-6.91 3.82-11.68zm-94.39-14.18c-.95.8-1.78 1.9-2.49 3.22v-4.36H159v30.63h5.67v-15.43c0-3.2.83-5.7 2.39-7.58 1.53-1.85 3.53-2.76 6.4-2.76h1.28V91.2s-1.5-.14-2.14-.17a8.07 8.07 0 0 0-5.63 2.03zm63.9 20.59c0-2.35-.9-4.26-2.44-5.65a15.25 15.25 0 0 0-7.22-3.45l-2.62-.56a13.75 13.75 0 0 1-4.72-1.76c-1-.67-1.39-1.34-1.39-2.18 0-1.3.37-2.16 1.4-2.93a6.9 6.9 0 0 1 4.09-1.1c1.74 0 3.17.42 4.1 1.11a5.82 5.82 0 0 1 2.2 3.12l.16.52 5.23-1.14-.17-.62a10.29 10.29 0 0 0-4.1-5.87 12.5 12.5 0 0 0-7.23-2.1c-3.28 0-6.08.93-8.14 2.7a8.77 8.77 0 0 0-3.21 6.87c0 2.33.71 4.32 2.23 5.65 1.56 1.37 4.19 2.45 7.83 3.23l1.52.33c2.3.5 3.97 1.16 5.03 1.91 1.06.76 1.49 1.64 1.49 2.47 0 1.27-.49 2.22-1.6 3.05a7.29 7.29 0 0 1-4.48 1.31c-2.04 0-3.67-.35-5.07-1.33a7.32 7.32 0 0 1-2.86-3.88l-.16-.52-5.14 1.01.16.63c.7 2.77 2.26 5.02 4.5 6.54 2.35 1.61 5.2 2.42 8.58 2.42 3.49 0 6.35-.93 8.61-2.78a9.02 9.02 0 0 0 3.42-7zM117.58 91.92v30.64h5.57V91.92Zm71.65 26.64a6.65 6.65 0 0 1-5.71-2.95c-1.45-1.96-2.2-4.7-2.2-8.38 0-3.67.77-6.4 2.12-8.26a6.61 6.61 0 0 1 5.8-2.95c2.55 0 4.24.93 5.69 2.94 1.46 2.05 2.3 4.71 2.3 8.27 0 3.58-.78 6.27-2.3 8.39a6.64 6.64 0 0 1-5.7 2.94zm58.07-22.54c2.46 0 4.28.84 5.8 2.95 1.4 1.95 2.2 4.72 2.2 8.26 0 3.56-.81 6.3-2.3 8.39a6.58 6.58 0 0 1-5.7 2.94 6.6 6.6 0 0 1-5.8-2.94c-1.48-2.07-2.2-4.82-2.2-8.39 0-3.56.8-6.26 2.2-8.27a6.48 6.48 0 0 1 5.8-2.94z" color="#000" font-family="sans-serif" font-weight="400" overflow="visible" style="line-height:normal;font-variant-ligatures:normal;font-variant-position:normal;font-variant-caps:normal;font-variant-numeric:normal;font-variant-alternates:normal;font-variant-east-asian:normal;font-feature-settings:normal;font-variation-settings:normal;text-indent:0;text-align:start;text-decoration-line:none;text-decoration-style:solid;text-decoration-color:#000;text-transform:none;text-orientation:mixed;white-space:normal;shape-padding:0;shape-margin:0;inline-size:0;isolation:auto;mix-blend-mode:normal;solid-color:#000;solid-opacity:1" transform="translate(68.3 -18.08)"/>
  <path fill-rule="evenodd" d="m114.54 174.01-.88-1.96c.52-.18.82-.58.82-1.1 0-.71-.6-1.21-1.45-1.21h-1.81V174h.63v-1.82h1.18l.8 1.82h.71zm-2.69-2.32v-1.42h1.18c.48 0 .78.26.78.67 0 .46-.32.75-.86.75zm1.02-3.5a3.69 3.69 0 1 0-.1 7.37 3.69 3.69 0 0 0 .1-7.38zm-.01.52a3.16 3.16 0 1 1-.09 6.33 3.16 3.16 0 0 1 .09-6.33z" clip-rule="evenodd" overflow="visible"/>
</svg>
