<!-- CC-0 1.0. SVG minimized for space. See '3RD_PARTY_LICENSES.md' for more details -->
<svg xmlns="http://www.w3.org/2000/svg" xmlns:xlink="http://www.w3.org/1999/xlink" width="249.14" height="297.15">
  <defs>
    <path id="reuse-0" d="M137.58 281.02c1.6-.66 3.4-.78 5.1-.47 1.7.31 3.3 1.05 4.74 2.02 2.87 1.95 4.99 4.78 7.02 7.58 4.68 6.44 9.17 13 13.25 19.83 3.3 5.54 6.34 11.26 10.16 16.45 2.5 3.4 5.3 6.54 7.82 9.93 2.5 3.38 4.72 7.05 5.84 11.11a22.3 22.3 0 0 1-1.63 15.96 21.07 21.07 0 0 1-7.77 8.33 20.04 20.04 0 0 1-11.02 2.87c-6.11-.22-11.7-3.28-17.38-5.54-11.58-4.62-24.16-6.06-36.1-9.66-3.67-1.1-7.28-2.4-10.97-3.42-1.64-.45-3.3-.85-4.86-1.55-1.55-.7-3-1.75-3.86-3.22a7.29 7.29 0 0 1-.93-3.79c.02-1.31.32-2.61.77-3.85.9-2.47 2.35-4.71 3.32-7.15 1.6-4 1.88-8.4 1.67-12.68-.22-4.3-.91-8.55-1.2-12.84-.14-1.9-.19-3.85.18-5.73a9.47 9.47 0 0 1 2.56-5.06 9.52 9.52 0 0 1 4.7-2.31c1.73-.36 3.5-.38 5.28-.34 1.77.04 3.54.13 5.3-.01 1.76-.15 3.53-.54 5.07-1.42a11.99 11.99 0 0 0 3.64-3.43c1-1.36 1.8-2.85 2.61-4.32a27.6 27.6 0 0 1 2.74-4.22 10.44 10.44 0 0 1 3.95-3.07" style="fill:url(#t)"/>
    <path id="reuse-1" d="M263.19 278.25c-2.62 3.12-6.27 5.17-9.9 7.02-6.19 3.16-12.6 5.92-18.42 9.72a75.58 75.58 0 0 0-10.86 8.74c-2.87 2.75-5.6 5.69-8.83 8.02a25.4 25.4 0 0 1-10.99 4.65c-4.83.72-9.82-.21-14.3-2.17-3.14-1.36-6.15-3.32-7.96-6.23-1.82-2.91-2.23-6.48-2.23-9.92-.01-6.08 1.11-12.09 2.17-18.07.89-4.97 1.72-9.96 2.26-14.98.99-9.13.98-18.35.32-27.51-.1-1.53-.23-3.08 0-4.6a6.56 6.56 0 0 1 2.02-4.04 6.56 6.56 0 0 1 3.94-1.42c1.41-.08 2.83.15 4.24.35 3.3.49 6.65.87 9.89 1.72 2.04.54 4.03 1.26 6.07 1.81 3.4.92 6.96 1.36 10.46.95 3.77-.44 7.43-1.85 11.23-1.76 1.56.04 3.1.33 4.59.8a9.8 9.8 0 0 1 4.12 2.3 9.06 9.06 0 0 1 1.88 3.06 18.58 18.58 0 0 1 1.16 5.25c.14 1.59.12 3.2.42 4.76.5 2.57 1.85 4.92 3.53 6.93a44.84 44.84 0 0 0 5.7 5.41c2 1.68 4 3.36 6.16 4.83 1.01.7 2.06 1.34 3.02 2.1a9.5 9.5 0 0 1 2.44 2.72 6.17 6.17 0 0 1 .54 4.87 13.93 13.93 0 0 1-2.67 4.7z" style="fill:url(#w)"/>
    <path id="reuse-2" d="M386.19 285.33a7.32 7.32 0 0 0-2-2.87 10.6 10.6 0 0 0-2.98-1.85c-2.16-.92-4.52-1.27-6.83-1.7-2.18-.4-4.34-.9-6.53-1.28-2.27-.38-4.61-.63-6.86-.12a11.72 11.72 0 0 0-5.27 2.82 15.07 15.07 0 0 0-3.49 4.89 21.12 21.12 0 0 0-1.65 10.4c.2 2.63.87 5.35 2.6 7.34a11.37 11.37 0 0 0 5.44 3.22 18.4 18.4 0 0 0 10.86-.16 28.59 28.59 0 0 0 14.33-10.77 15.78 15.78 0 0 0 2.56-5.4 8.04 8.04 0 0 0-.18-4.52" style="fill:#020204"/>
    <path id="reuse-3" d="M362.22 276.46a12.48 12.48 0 0 0-10.06 6.03 12.38 12.38 0 0 0-1.66 7.15c.07-1.74.53-3.44 1.38-4.97a10.22 10.22 0 0 1 6.93-5.06c1.8-.33 3.63-.13 5.44.1 1.73.21 3.48.44 5.19.8 2.64.58 5.25 1.46 7.47 3 .51.37 1 .78 1.4 1.26.4.48.72 1.04.85 1.65.17.9-.08 1.86-.54 2.66-.45.8-1.06 1.5-1.71 2.16a39.5 39.5 0 0 1-1.66 1.53c2.56-.5 5.15-1.2 7.28-2.69a7.25 7.25 0 0 0 2.25-2.34c.54-.96.76-2.12.5-3.19a4.66 4.66 0 0 0-1.06-1.94 9.45 9.45 0 0 0-1.69-1.44 20.02 20.02 0 0 0-9.06-3.46c-2.08-.39-4.18-.71-6.28-.97-1.65-.2-3.32-.38-4.97-.28z" clip-path="url(#ah)" style="fill:url(#ag);filter:url(#filter14812-5)"/>
  </defs>
  <defs>
    <linearGradient id="r">
      <stop offset="0" style="stop-color:#b98309"/>
      <stop offset="1" style="stop-color:#382605"/>
    </linearGradient>
    <linearGradient id="s">
      <stop offset="0" style="stop-color:#ebc40c"/>
      <stop offset="1" style="stop-color:#ebc40c;stop-opacity:0"/>
    </linearGradient>
    <linearGradient id="q">
      <stop offset="0" style="stop-color:#7c7c7c"/>
      <stop offset="1" style="stop-color:#7c7c7c;stop-opacity:.32941177"/>
    </linearGradient>
    <linearGradient id="p">
      <stop offset="0" style="stop-color:#110800"/>
      <stop offset=".59" style="stop-color:#a65a00;stop-opacity:.80000001"/>
      <stop offset="1" style="stop-color:#ff921e;stop-opacity:0"/>
    </linearGradient>
    <linearGradient id="m">
      <stop offset="0" style="stop-color:#000"/>
      <stop offset="1" style="stop-color:#000;stop-opacity:0"/>
    </linearGradient>
    <linearGradient id="n">
      <stop offset="0" style="stop-color:#3e2a06"/>
      <stop offset="1" style="stop-color:#ad780a"/>
    </linearGradient>
    <linearGradient id="o">
      <stop offset="0" style="stop-color:#f3cd0c"/>
      <stop offset="1" style="stop-color:#f3cd0c;stop-opacity:0"/>
    </linearGradient>
    <linearGradient id="l">
      <stop offset="0" style="stop-color:#000"/>
      <stop offset="1" style="stop-color:#000;stop-opacity:.24886878"/>
    </linearGradient>
    <linearGradient id="k">
      <stop offset="0" style="stop-color:#c8c8c8"/>
      <stop offset="1" style="stop-color:#797978"/>
    </linearGradient>
    <linearGradient id="g">
      <stop offset="0" style="stop-color:#d2940a"/>
      <stop offset=".75" style="stop-color:#d89c08"/>
      <stop offset=".87" style="stop-color:#b67e07"/>
      <stop offset="1" style="stop-color:#946106"/>
    </linearGradient>
    <linearGradient id="h">
      <stop offset="0" style="stop-color:#ad780a"/>
      <stop offset=".12" style="stop-color:#d89e08"/>
      <stop offset=".26" style="stop-color:#edb80b"/>
      <stop offset=".39" style="stop-color:#ebc80d"/>
      <stop offset=".53" style="stop-color:#f5d838"/>
      <stop offset=".77" style="stop-color:#f6d811"/>
      <stop offset="1" style="stop-color:#f5cd31"/>
    </linearGradient>
    <linearGradient id="i">
      <stop offset="0" style="stop-color:#3a2903"/>
      <stop offset=".55" style="stop-color:#735208"/>
      <stop offset="1" style="stop-color:#ac8c04"/>
    </linearGradient>
    <linearGradient id="j">
      <stop offset="0" style="stop-color:#f5ce2d"/>
      <stop offset="1" style="stop-color:#d79b08"/>
    </linearGradient>
    <linearGradient id="f">
      <stop offset="0" style="stop-color:#757574;stop-opacity:0"/>
      <stop offset=".26" style="stop-color:#757574"/>
      <stop offset=".5" style="stop-color:#757574"/>
      <stop offset="1" style="stop-color:#757574;stop-opacity:0"/>
    </linearGradient>
    <linearGradient id="e">
      <stop offset="0" style="stop-color:#646464;stop-opacity:0"/>
      <stop offset=".31" style="stop-color:#646464;stop-opacity:.5825243"/>
      <stop offset=".47" style="stop-color:#646464"/>
      <stop offset=".73" style="stop-color:#646464;stop-opacity:.25728154"/>
      <stop offset="1" style="stop-color:#646464;stop-opacity:0"/>
    </linearGradient>
    <linearGradient id="d">
      <stop offset="0" style="stop-color:#747474"/>
      <stop offset=".13" style="stop-color:#8c8c8c"/>
      <stop offset=".25" style="stop-color:#a4a4a4"/>
      <stop offset=".5" style="stop-color:#d4d4d4"/>
      <stop offset=".62" style="stop-color:#d4d4d4"/>
      <stop offset="1" style="stop-color:#7c7c7c"/>
    </linearGradient>
    <linearGradient id="c">
      <stop offset="0" style="stop-color:#949494;stop-opacity:.39215687"/>
      <stop offset=".5" style="stop-color:#949494"/>
      <stop offset="1" style="stop-color:#949494;stop-opacity:.39215687"/>
    </linearGradient>
    <linearGradient id="b">
      <stop offset="0" style="stop-color:#020204"/>
      <stop offset=".73" style="stop-color:#020204"/>
      <stop offset="1" style="stop-color:#5c5c5c"/>
    </linearGradient>
    <linearGradient id="a">
      <stop offset="0" style="stop-color:#fefefc"/>
      <stop offset=".76" style="stop-color:#fefefc"/>
      <stop offset="1" style="stop-color:#d4d4d4"/>
    </linearGradient>
    <linearGradient xlink:href="#c" id="ar" x1="213.02" x2="219.73" y1="132.77" y2="140.72" gradientTransform="translate(-60.00015,-58.362183)" gradientUnits="userSpaceOnUse"/>
    <linearGradient xlink:href="#d" id="at" x1="337.25" x2="358.63" y1="119.99" y2="132.49" gradientTransform="translate(-250)" gradientUnits="userSpaceOnUse"/>
    <linearGradient xlink:href="#e" id="au" x1="294.51" x2="308.74" y1="114.56" y2="128" gradientTransform="translate(-300.00015,-0.9999998)" gradientUnits="userSpaceOnUse"/>
    <linearGradient xlink:href="#e" id="ao" x1="253.23" x2="266.63" y1="115.67" y2="128.57" gradientTransform="translate(-300.00015,-0.9999998)" gradientUnits="userSpaceOnUse"/>
    <linearGradient xlink:href="#f" id="al" x1="164.05" x2="169.88" y1="132.06" y2="142.49" gradientTransform="translate(-50.00015,-58.362183)" gradientUnits="userSpaceOnUse"/>
    <linearGradient xlink:href="#h" id="az" x1="256.86" x2="313.34" y1="158.31" y2="157.87" gradientTransform="translate(-210)" gradientUnits="userSpaceOnUse"/>
    <linearGradient xlink:href="#j" id="aD" x1="243.03" x2="243.47" y1="157.02" y2="159.77" gradientUnits="userSpaceOnUse"/>
    <linearGradient xlink:href="#m" id="Q" x1="338.29" x2="341.98" y1="323.9" y2="351.49" gradientTransform="translate(-310)" gradientUnits="userSpaceOnUse"/>
    <linearGradient xlink:href="#n" id="R" x1="442.04" x2="490.12" y1="371.54" y2="293.59" gradientTransform="translate(-250.00016,-58.362183)" gradientUnits="userSpaceOnUse"/>
    <linearGradient xlink:href="#o" id="X" x1="355.16" x2="353.75" y1="289.59" y2="302.32" gradientTransform="translate(-150.00016,-60.362183)" gradientUnits="userSpaceOnUse"/>
    <linearGradient xlink:href="#q" id="ai" x1="358.5" x2="361.5" y1="279.36" y2="279.24" gradientUnits="userSpaceOnUse"/>
    <linearGradient xlink:href="#r" id="Y" x1="123.13" x2="170.86" y1="301.54" y2="381.62" gradientTransform="translate(-80.00015,-58.362183)" gradientUnits="userSpaceOnUse"/>
    <linearGradient xlink:href="#s" id="ad" x1="171.57" x2="186.6" y1="323.99" y2="352.28" gradientTransform="translate(-80.53048,-60.12995)" gradientUnits="userSpaceOnUse"/>
    <linearGradient xlink:href="#r" id="t" x1="123.13" x2="170.86" y1="301.54" y2="381.62" gradientUnits="userSpaceOnUse"/>
    <linearGradient xlink:href="#n" id="u" x1="442.04" x2="490.12" y1="371.54" y2="293.59" gradientTransform="translate(-250.00016,-58.362187)" gradientUnits="userSpaceOnUse"/>
    <linearGradient xlink:href="#n" id="v" x1="442.04" x2="490.12" y1="371.54" y2="293.59" gradientTransform="matrix(0.87491199,0,0,0.81148755,-158.36095,15.22676)" gradientUnits="userSpaceOnUse"/>
    <linearGradient xlink:href="#n" id="w" x1="442.04" x2="490.12" y1="371.54" y2="293.59" gradientTransform="translate(-500.00032,-116.72437)" gradientUnits="userSpaceOnUse"/>
    <filter id="aa" width="1.22" height="1.22" x="-.11" y="-.11">
      <feGaussianBlur stdDeviation="3.92"/>
    </filter>
    <filter id="ac">
      <feGaussianBlur stdDeviation="2.44"/>
    </filter>
    <filter id="O" width="1.2" height="1.09" x="-.1" y="-.04">
      <feGaussianBlur stdDeviation="1.13"/>
    </filter>
    <filter id="E" width="1.94" height="1.55" x="-.47" y="-.27">
      <feGaussianBlur stdDeviation=".86"/>
    </filter>
    <filter id="F" width="2.21" height="1.96" x="-.6" y="-.48">
      <feGaussianBlur stdDeviation="2.64"/>
    </filter>
    <filter id="T" width="1.29" height="1.29" x="-.15" y="-.14">
      <feGaussianBlur stdDeviation="4.78"/>
    </filter>
    <filter id="V" width="1.23" height="1.25" x="-.12" y="-.12">
      <feGaussianBlur stdDeviation="3.17"/>
    </filter>
    <filter id="H" width="1.36" height="1.32" x="-.18" y="-.16">
      <feGaussianBlur stdDeviation=".9"/>
    </filter>
    <filter id="D" width="2.63" height="1.12" x="-.82" y="-.06">
      <feGaussianBlur stdDeviation="1.45"/>
    </filter>
    <filter id="M" width="1.24" height="1.08" x="-.12" y="-.04">
      <feGaussianBlur stdDeviation="1.35"/>
    </filter>
    <filter id="ax" width="1.31" height="1.43" x="-.15" y="-.21">
      <feGaussianBlur stdDeviation=".9"/>
    </filter>
    <filter id="ay">
      <feGaussianBlur stdDeviation=".76"/>
    </filter>
    <filter id="aA" width="1.32" height="1.26" x="-.16" y="-.13">
      <feGaussianBlur stdDeviation=".85"/>
    </filter>
    <filter id="aq" width="1.32" height="1.42" x="-.16" y="-.21">
      <feGaussianBlur stdDeviation=".25"/>
    </filter>
    <filter id="G" width="1.58" height="1.62" x="-.29" y="-.31">
      <feGaussianBlur stdDeviation="1.74"/>
    </filter>
    <filter id="L">
      <feGaussianBlur stdDeviation=".93"/>
    </filter>
    <filter id="J" width="1.15" height="1.26" x="-.08" y="-.13">
      <feGaussianBlur stdDeviation="2.04"/>
    </filter>
    <radialGradient xlink:href="#a" id="ak" cx="223.2" cy="137.66" r="14.57" fx="223.2" fy="137.66" gradientTransform="matrix(0.81524244,-0.03431182,0.02961133,1.2479887,-208.43744,-35.542647)" gradientUnits="userSpaceOnUse"/>
    <radialGradient xlink:href="#a" id="ap" cx="223.2" cy="137.66" r="14.57" fx="223.2" fy="137.66" gradientTransform="matrix(1.0857794,-0.03431182,0.03943781,1.2479887,-233.54194,-35.542647)" gradientUnits="userSpaceOnUse"/>
    <radialGradient xlink:href="#b" id="av" cx="275.54" cy="150.65" r="15.38" fx="275.54" fy="150.65" gradientTransform="matrix(0.69784558,-0.50717348,0.46034105,0.63340638,-271.10191,183.03011)" gradientUnits="userSpaceOnUse"/>
    <radialGradient xlink:href="#g" id="aw" cx="294.48" cy="193.1" r="31.11" fx="294.48" fy="193.1" gradientTransform="matrix(0.93618683,-0.38640412,0.27133164,0.65738721,-244.47527,146.7229)" gradientUnits="userSpaceOnUse"/>
    <radialGradient xlink:href="#i" id="aB" cx="77.67" cy="147.09" r="3.23" fx="77.67" fy="147.09" gradientTransform="matrix(1.0000004,0,0,0.5833264,59.999805,3.054009)" gradientUnits="userSpaceOnUse"/>
    <radialGradient xlink:href="#i" id="aC" cx="63.13" cy="147.44" r="1.54" fx="63.13" fy="147.44" gradientTransform="matrix(1,0,0,1.0751189,59.99984,-69.456344)" gradientUnits="userSpaceOnUse"/>
    <radialGradient xlink:href="#k" id="an" cx="268.07" cy="126.53" r="35.51" fx="268.07" fy="126.53" gradientTransform="matrix(0.20141143,-0.03316079,0.03065006,0.18616184,-3.1263574,114.03586)" gradientUnits="userSpaceOnUse"/>
    <radialGradient xlink:href="#l" id="A" cx="336.22" cy="220.54" r="27.39" fx="336.22" fy="220.54" gradientTransform="matrix(-0.69844216,0,0,0.76335815,166.3057,50.219935)" gradientUnits="userSpaceOnUse"/>
    <radialGradient xlink:href="#l" id="B" cx="312.15" cy="236.37" r="27.39" fx="312.15" fy="236.37" gradientTransform="matrix(1,0,0,0.76335815,-150.00015,-8.142243)" gradientUnits="userSpaceOnUse"/>
    <radialGradient xlink:href="#l" id="C" cx="275.55" cy="225.13" r="10.85" fx="275.55" fy="225.13" gradientTransform="matrix(1,0,0,1.0692348,-150.00016,-73.222483)" gradientUnits="userSpaceOnUse"/>
    <radialGradient xlink:href="#p" id="ae" cx="363.34" cy="303.42" r="16.85" fx="363.34" fy="303.42" gradientTransform="matrix(1.3082075,0.35053296,-0.36795399,1.3732236,-150.50951,-298.71133)" gradientUnits="userSpaceOnUse"/>
    <radialGradient xlink:href="#p" id="af" cx="363.34" cy="303.42" r="16.85" fx="363.34" fy="303.42" gradientTransform="matrix(1.3082075,0.35053296,-0.36795399,1.3732236,-310.50935,-240.34915)" gradientUnits="userSpaceOnUse"/>
    <radialGradient xlink:href="#q" id="ag" cx="382.23" cy="246.86" r="20.54" fx="382.23" fy="246.86" gradientTransform="matrix(0.36025223,0.15680447,-0.07246786,0.16649214,260.61683,181.93825)" gradientUnits="userSpaceOnUse"/>
    <radialGradient xlink:href="#a" id="x" cx="223.2" cy="137.66" r="14.57" fx="223.2" fy="137.66" gradientTransform="matrix(1.0857794,-0.03431182,0.03943781,1.2479887,-15.5421,-75.904827)" gradientUnits="userSpaceOnUse"/>
    <radialGradient xlink:href="#a" id="y" cx="223.2" cy="137.66" r="14.57" fx="223.2" fy="137.66" gradientTransform="matrix(0.81524244,-0.03431182,0.02961133,1.2479887,9.5624,-75.904827)" gradientUnits="userSpaceOnUse"/>
    <radialGradient xlink:href="#g" id="z" cx="294.48" cy="193.1" r="31.11" fx="294.48" fy="193.1" gradientTransform="matrix(0.81494503,-0.25452614,0.31491054,0.43302392,-75.371375,150.73818)" gradientUnits="userSpaceOnUse"/>
    <clipPath id="ab" clipPathUnits="userSpaceOnUse">
      <use xlink:href="#reuse-0" style="fill:url(#t)" transform="matrix(1,0,0,1.0182804,0,-4.0313444)"/>
    </clipPath>
    <clipPath id="Z" clipPathUnits="userSpaceOnUse">
      <use xlink:href="#reuse-0" style="fill:url(#t)" transform="translate(-240.00015,-1)"/>
    </clipPath>
    <clipPath id="S" clipPathUnits="userSpaceOnUse">
      <path d="M513.19 336.61c-2.62 3.12-6.27 5.17-9.9 7.02-6.19 3.16-12.6 5.93-18.42 9.72a75.58 75.58 0 0 0-10.86 8.74c-2.87 2.75-5.6 5.69-8.83 8.02a25.4 25.4 0 0 1-10.99 4.65c-4.83.73-9.82-.21-14.3-2.16-3.14-1.37-6.15-3.33-7.96-6.23-1.82-2.92-2.23-6.5-2.23-9.93-.01-6.07 1.11-12.09 2.17-18.07.89-4.97 1.72-9.96 2.26-14.98.99-9.13.98-18.35.32-27.5-.1-1.54-.23-3.1 0-4.61a6.56 6.56 0 0 1 2.02-4.04 6.56 6.56 0 0 1 3.94-1.42c1.42-.08 2.83.15 4.24.36 3.3.48 6.65.86 9.89 1.71 2.04.54 4.03 1.26 6.07 1.81 3.4.92 6.96 1.36 10.47.95 3.76-.44 7.42-1.85 11.22-1.76 1.56.04 3.1.33 4.59.8a9.8 9.8 0 0 1 4.12 2.3 9.06 9.06 0 0 1 1.88 3.06 18.58 18.58 0 0 1 1.16 5.25c.14 1.6.12 3.2.42 4.76.5 2.58 1.85 4.93 3.53 6.94a44.84 44.84 0 0 0 5.7 5.4c2 1.69 4 3.36 6.16 4.83 1.01.7 2.06 1.34 3.02 2.1a9.5 9.5 0 0 1 2.44 2.72 6.17 6.17 0 0 1 .54 4.88 13.93 13.93 0 0 1-2.67 4.68z" style="fill:url(#u)"/>
    </clipPath>
    <clipPath id="U" clipPathUnits="userSpaceOnUse">
      <path d="M509.36 335.74c-2.3 2.53-5.48 4.2-8.66 5.7-5.41 2.56-11.02 4.8-16.11 7.89a65.5 65.5 0 0 0-9.5 7.1c-2.52 2.22-4.9 4.6-7.73 6.5a23.17 23.17 0 0 1-9.62 3.77c-4.22.59-8.59-.17-12.5-1.76-2.75-1.1-5.4-2.7-6.97-5.05-1.6-2.37-1.95-5.27-1.96-8.05 0-4.93.98-9.81 1.9-14.67.78-4.03 1.51-8.08 1.99-12.15.86-7.41.85-14.9.28-22.33-.1-1.24-.21-2.5-.01-3.74a5.2 5.2 0 0 1 1.77-3.27 6.02 6.02 0 0 1 3.44-1.15c1.25-.06 2.48.12 3.71.28 2.9.4 5.82.7 8.66 1.4 1.78.43 3.52 1.02 5.3 1.47 2.99.74 6.1 1.1 9.17.77 3.3-.36 6.5-1.5 9.82-1.43 1.36.03 2.71.27 4 .65 1.33.38 2.64.94 3.62 1.86.74.7 1.25 1.58 1.64 2.49.58 1.36.89 2.8 1.02 4.26.12 1.29.1 2.6.36 3.86.44 2.09 1.62 4 3.09 5.63a38.16 38.16 0 0 0 4.98 4.39 68.33 68.33 0 0 0 5.4 3.92c.89.56 1.8 1.08 2.64 1.7a7.94 7.94 0 0 1 2.14 2.2c.71 1.18.93 2.6.47 3.96a11.12 11.12 0 0 1-2.34 3.8z" style="fill:url(#v);stroke-width:.842603"/>
    </clipPath>
    <clipPath id="W" clipPathUnits="userSpaceOnUse">
      <use xlink:href="#reuse-1" style="fill:url(#w)"/>
    </clipPath>
    <clipPath id="N" clipPathUnits="userSpaceOnUse">
      <path d="M304.85 225.45c5.97 4.9 9.77 12.29 10.94 20 .92 6.02.32 12.2-1.01 18.13-1.33 5.94-3.4 11.68-5.44 17.4a34.83 34.83 0 0 0-1.95 7c-.33 2.4-.12 4.95 1.02 7.09 1.3 2.44 3.74 4.13 6.37 4.92 2.58.78 5.38.77 8 .1a19.4 19.4 0 0 0 7.2-3.65c5.42-4.28 8.68-10.95 9.95-17.81 1.27-6.86.68-13.95-.5-20.83-1.6-9.38-4.3-18.55-7.73-27.4a96.08 96.08 0 0 0-9.62-18.53c-3.78-5.67-9.14-10.1-13.1-15.63-1.38-1.93-3.04-3.94-4.39-5.88-2.91-4.2-2.25-3.42-4.06-6.13-1.31-1.97-3.39-2.65-5.57-3.51a10.8 10.8 0 0 0-6.88-.48c-2.97.85-5.39 3.24-6.68 6.09a16.2 16.2 0 0 0-1.01 9.22c.64 4 2.44 7.7 4.46 11.19 2.29 3.93 4.94 7.72 8.39 10.65 3.6 3.05 7.95 5.07 11.6 8.06" style="fill:#020204;stroke-width:.991084"/>
    </clipPath>
    <clipPath id="P" clipPathUnits="userSpaceOnUse">
      <path d="M240.47 195.04c-7.07 8.03-14.35 15.81-18.34 24.5-1.98 4.41-2.91 9.2-4.27 13.85a104.8 104.8 0 0 1-5.97 15.34 307.47 307.47 0 0 1-6.94 13.53c-1.74 3.26-3.5 6.58-4.1 10.22a21 21 0 0 0 .53 8.67 39.96 39.96 0 0 0 3.24 8.1c5.66 11.08 14.17 20.63 24.24 27.93a85.15 85.15 0 0 0 14.6 8.53c2.78 1.27 5.71 2.4 8.77 2.45 1.53.03 3.08-.22 4.48-.84a7.94 7.94 0 0 0 3.48-2.88 8.32 8.32 0 0 0 1.16-5.41c-.2-1.87-.93-3.65-1.9-5.26-2.4-3.92-6.17-6.76-9.8-9.57a327.7 327.7 0 0 1-22.69-19.24c-2.05-1.91-4.1-3.88-5.53-6.29a23.54 23.54 0 0 1-2.66-7.7 42.66 42.66 0 0 1 1.46-22.12c.98-2.76 2.27-5.4 3.52-8.04 2.16-4.6 4.2-9.27 7.05-13.47 3.54-5.23 8.27-9.66 11.15-15.28 2.44-4.74 3.42-10.07 4.36-15.32.74-4.1 2.15-8.12 2.87-12.23-1.4 2.67-5.93 7.04-8.7 10.53z" style="fill:#020204"/>
    </clipPath>
    <clipPath id="ah" clipPathUnits="userSpaceOnUse">
      <use xlink:href="#reuse-2" style="fill:#020204"/>
    </clipPath>
    <clipPath id="aj" clipPathUnits="userSpaceOnUse">
      <use xlink:href="#reuse-2" style="fill:#020204"/>
    </clipPath>
    <clipPath id="as" clipPathUnits="userSpaceOnUse">
      <path d="M85.75 122.36a16.34 16.34 0 0 0-6.25 7.75c-1.44 4-.89 8.48.5 12.5 1.42 4.12 3.8 8.04 7.38 10.51a13.51 13.51 0 0 0 6.03 2.34 11 11 0 0 0 6.34-1.1 12.22 12.22 0 0 0 5.26-5.78 21.17 21.17 0 0 0 1.74-7.72c.19-3.37-.14-6.8-1.25-10-1.2-3.47-3.39-6.67-6.47-8.66-1.54-1-3.3-1.69-5.11-1.94a10.9 10.9 0 0 0-5.42.6c-.98.38-1.89.91-2.75 1.5" style="fill:url(#x)"/>
    </clipPath>
    <clipPath id="am" clipPathUnits="userSpaceOnUse">
      <path d="M54.23 122.36c-1.78.1-3.48.92-4.79 2.14a10.82 10.82 0 0 0-2.78 4.5c-1.13 3.39-.88 7.05-.62 10.61.23 3.22.47 6.5 1.68 9.5a12.4 12.4 0 0 0 2.58 4.07 8.86 8.86 0 0 0 4.12 2.43c1.46.37 3.03.3 4.48-.16a9.7 9.7 0 0 0 3.84-2.34 12.9 12.9 0 0 0 3.26-5.69c.6-2.12.78-4.35.75-6.56-.04-2.76-.4-5.54-1.27-8.16a18.38 18.38 0 0 0-4.17-7.09c-.93-.96-2-1.8-3.2-2.4a7.88 7.88 0 0 0-3.88-.85" style="fill:url(#y)"/>
    </clipPath>
    <clipPath id="aE" clipPathUnits="userSpaceOnUse">
      <path d="M214.64 148.04c-2.51-.04-5 .29-7.28.88-4.05 1.06-7.57 2.94-10.08 5.4-1.63.85-3.05 1.9-4.2 3.08a5.87 5.87 0 0 0-1.5 2.25c-.21.65-.2 1.34-.3 2.02-.03.25-.07.5-.03.76.02.13.06.26.14.39l.08.1c.08.15.18.3.31.43.3.3.68.53 1.1.73.41.2.85.37 1.28.55 2.28.97 4.23 2.33 6 3.76 2.36 1.93 4.52 4.06 7.5 5.46 2.1.99 4.53 1.55 6.93 1.73 2.81.2 5.58-.13 8.18-.7 2.4-.53 4.7-1.27 6.75-2.25 3.9-1.87 6.99-4.6 11.43-5.84.96-.26 1.99-.45 2.9-.79.93-.33 1.77-.82 2.13-1.52.34-.68.2-1.45.23-2.2.04-.78.27-1.55.34-2.34a3.16 3.16 0 0 0-.63-2.35 3.34 3.34 0 0 0-.45-.45c-.05-.3-.22-.58-.46-.83-.5-.52-1.3-.87-2.1-1.12-1.1-.33-2.25-.5-3.4-.7a66.96 66.96 0 0 1-10.3-2.6c-1.65-.56-3.26-1.18-4.9-1.78a38.16 38.16 0 0 0-5.16-1.57c-1.5-.32-3-.48-4.51-.5z" style="fill:url(#z);stroke-width:.77538"/>
    </clipPath>
    <clipPath id="I" clipPathUnits="userSpaceOnUse">
      <path d="M-26.3 154.81a11.87 11.87 0 0 0-2.13 4.52c-.42 1.62-.57 3.3-.63 4.98-.13 3.36.08 6.77-.81 10-.95 3.47-3.08 6.47-5.16 9.39-3.6 5.06-7.25 10.25-9.03 16.2a28.78 28.78 0 0 0-1.05 11.16 118.07 118.07 0 0 0-10.42 18.78 102.74 102.74 0 0 0-8.45 31.35c-1.3 13.24.4 26.86 5.62 39.1a64.06 64.06 0 0 0 16.69 23.24c3.7 3.2 7.8 5.94 12.19 8.1 15.21 7.47 34.01 7.49 48.97-.48 7.82-4.17 14.42-10.26 20.78-16.43 3.84-3.7 7.65-7.51 10.57-11.97 5.63-8.6 7.59-19.04 8.8-29.24 2.14-17.83 2.2-36.67-5.62-52.84a58.29 58.29 0 0 0-10.58-15.14A82.97 82.97 0 0 0 36.75 183c-2.37-5.15-5.27-10.06-7.47-15.29-.9-2.15-1.69-4.34-2.7-6.45-1-2.1-2.23-4.12-3.92-5.73a16.17 16.17 0 0 0-6.13-3.57 26.67 26.67 0 0 0-7.03-1.2c-4.77-.24-9.54.38-14.31.19-3.8-.15-7.58-.82-11.37-.6-1.9.12-3.79.46-5.55 1.17a11.2 11.2 0 0 0-4.57 3.3" style="fill:#fdfdfb"/>
    </clipPath>
    <clipPath id="K" clipPathUnits="userSpaceOnUse">
      <path d="M-47.3 161.44a13.4 13.4 0 0 0-2.13 4.9c-.42 1.77-.57 3.6-.63 5.42-.13 3.64.08 7.35-.81 10.86-.95 3.75-3.08 7-5.16 10.18-3.6 5.5-7.25 11.13-9.03 17.59a33.8 33.8 0 0 0-1.05 12.12 131.75 131.75 0 0 0-10.42 20.39 119.13 119.13 0 0 0-8.45 34.03c-1.3 14.37.4 29.16 5.62 42.44 3.79 9.6 9.42 18.4 16.69 25.24 3.7 3.48 7.8 6.45 12.19 8.79 15.21 8.12 34.01 8.13 48.97-.52 7.82-4.53 14.42-11.14 20.78-17.83 3.84-4.03 7.65-8.16 10.57-13 5.63-9.33 7.59-20.67 8.8-31.74 2.14-19.36 2.2-39.81-5.62-57.36a63.61 63.61 0 0 0-10.58-16.44 95.94 95.94 0 0 0-6.69-24.48c-2.37-5.6-5.27-10.92-7.47-16.6-.9-2.33-1.69-4.71-2.7-7-1-2.28-2.23-4.47-3.92-6.22a15.93 15.93 0 0 0-6.13-3.87 24.77 24.77 0 0 0-7.03-1.31c-4.77-.26-9.54.41-14.31.2-3.8-.16-7.58-.88-11.37-.64-1.9.13-3.79.5-5.55 1.27a11.28 11.28 0 0 0-4.57 3.58" style="fill:#fdfdfb;stroke-width:1.04195"/>
    </clipPath>
  </defs>
  <path d="M140.81 19.58c-7.17-.08-14.42 1.37-20.73 4.77a37.38 37.38 0 0 0-15.59 16.22c-3.38 6.83-4.71 14.11-4.91 22.14-.38 15.24.34 31.24 1.5 45.73.3 4.41.85 7 .29 11.52-1.9 9.63-10.32 16.11-14.8 24.57-4.96 9.33-7.05 19.88-10.8 29.76-3.42 9.05-8.22 17.52-11.46 26.63-4.54 12.74-5.9 26.73-2.9 39.92a69 69 0 0 0 13.49 27.53c-.93 1.68-1.84 3.37-2.8 5.03-2.98 5.15-6.62 10.03-8.31 15.73a18.88 18.88 0 0 0-.64 8.8 12.65 12.65 0 0 0 4.35 7.58c1.53 1.22 3.36 2 5.26 2.44 1.9.43 3.85.54 5.8.5 7.4-.16 14.56-2.4 21.71-4.28a248.6 248.6 0 0 1 12.8-3c15.25-3.11 32.26-1.87 46.4.18 4.8.73 9.55 1.67 14.26 2.82 7.38 1.78 14.73 4.06 22.32 4.28 2 .06 4.01-.03 5.96-.47a13.26 13.26 0 0 0 5.4-2.47 12.66 12.66 0 0 0 4.36-7.58c.55-2.93.21-5.98-.65-8.83-1.71-5.71-5.39-10.58-8.43-15.7-1.2-2.02-2.32-4.1-3.52-6.12 9.17-10.3 16.55-22.2 20.82-35.28 4.66-14.27 5.51-29.64 3.55-44.53s-6.68-29.32-12.9-43c-7.8-17.13-14.35-23.32-19.1-38.37-5.13-16.27-.9-35.52-4.71-50.27a51.7 51.7 0 0 0-6.33-14.2 48.67 48.67 0 0 0-12.35-13.3c-7.87-5.71-17.62-8.65-27.34-8.75z" style="fill:#020204" transform="translate(-16.987948,-19.575154)"/>
  <path d="M112.7 105.45a11.87 11.87 0 0 0-2.14 4.52c-.4 1.62-.56 3.3-.62 4.98-.13 3.35.07 6.77-.81 10-.95 3.47-3.08 6.46-5.16 9.38-3.6 5.06-7.25 10.25-9.03 16.2a28.78 28.78 0 0 0-1.05 11.17 118.07 118.07 0 0 0-10.42 18.78 102.74 102.74 0 0 0-8.45 31.34c-1.3 13.25.4 26.86 5.62 39.1a64.06 64.06 0 0 0 16.69 23.25c3.7 3.2 7.8 5.94 12.19 8.1 15.21 7.47 34.01 7.48 48.97-.49 7.82-4.16 14.42-10.26 20.78-16.42 3.84-3.71 7.65-7.51 10.57-11.97 5.63-8.6 7.59-19.04 8.8-29.24 2.13-17.83 2.2-36.67-5.62-52.84a58.29 58.29 0 0 0-10.58-15.14 82.97 82.97 0 0 0-6.69-22.54c-2.37-5.16-5.27-10.06-7.47-15.3-.9-2.14-1.69-4.34-2.7-6.44-1-2.1-2.23-4.12-3.92-5.73a16.17 16.17 0 0 0-6.13-3.57 26.67 26.67 0 0 0-7.03-1.2c-4.77-.25-9.54.38-14.31.19-3.8-.15-7.58-.82-11.37-.6-1.9.12-3.79.46-5.55 1.17a11.2 11.2 0 0 0-4.57 3.3" style="fill:#fdfdfb" transform="translate(-16.987948,-19.575154)"/>
  <path d="M-61 211.6c.88 1.52-.55 6.77 19.96 3.4 0 0-3.6.47-7.15 1.41-5.52 2.14-10.33 4.52-14.04 7.68-3.68 3.12-6.37 7.2-9.74 10.7 0 0 5.46-11.52 6.82-15 1.36-3.46-.23-3.3.85-8.4 1.08-5.11 3.71-10.01 3.71-10.01s-2.15 7.2-.41 10.21z" style="opacity:.25;fill:url(#A);filter:url(#filter4487-6)" transform="translate(-16.987948,-19.575154) matrix(1.1543044,0,0,1,166.33231,-58.362183)"/>
  <path d="M172.05 151.86c-4.83 3.36-7.65 2.96-13.5 3.62-5.86.65-21.7.42-21.7.42s2.29-.05 7.37.9c5.09.95 15.46 1.85 21.3 4.08 5.83 2.22 7.96 2.85 11.51 5.1 5.05 3.19 8.76 8.2 13.59 11.7 0 0 .23-4.65-1.72-8.12-1.95-3.47-7.19-8.93-8.73-14.04-1.54-5.1-2.27-15.13-2.27-15.13s-1.02 8.1-5.85 11.47z" style="opacity:.42;fill:url(#B);filter:url(#filter4427-5-7)" transform="translate(-16.987948,-19.575154)"/>
  <path d="M126.67 144.68a60.3 60.3 0 0 1-.7 4.34c-.14.71-.3 1.42-.56 2.1a4.7 4.7 0 0 1-1.18 1.8c-.47.42-1.04.7-1.62.97a24.36 24.36 0 0 1-7.1 2.02c.97.07 1.95.16 2.93.27.61.07 1.23.14 1.83.3.6.15 1.19.38 1.69.75.54.4.97.95 1.3 1.55.63 1.19.85 2.56.97 3.9.15 1.73.16 3.47.03 5.2.12-1.16.36-2.3.72-3.4.65-2 1.7-3.86 3.12-5.4a10.29 10.29 0 0 1 9.1-3.4c-2.56.11-5.15-.7-7.2-2.24a9.36 9.36 0 0 1-2.58-2.9 8.1 8.1 0 0 1-.75-5.86" style="opacity:.2;fill:url(#C);filter:url(#filter4538-7)" transform="translate(-16.987948,-19.575154)"/>
  <path d="M120.5 178.72a88.71 88.71 0 0 0-2.53 14.28c-.63 6.8-.48 13.67-.85 20.5-.3 5.8-.99 11.66.02 17.37a29.84 29.84 0 0 0 2.56 7.88c.19-.95.33-1.91.42-2.88.42-4.63-.36-9.28-.62-13.93-.46-8.15.67-16.3 1.12-24.44.36-6.25.32-12.53-.12-18.78" style="opacity:.11;filter:url(#D)" transform="translate(-16.987948,-19.575154)"/>
  <path d="M351.96 200.86c-1.45.39-1.23 4-.3 5.5.8 1.26 3.08 2.27 3.76 1 1.12-2.06-1.47-7.04-3.46-6.5z" style="opacity:.25;fill:#7c7c7c;filter:url(#E)" transform="translate(-16.987948,-19.575154) matrix(-0.06991927,0.95700905,-0.56450744,-0.11853409,236.56758,-180.37928)"/>
  <path d="M361.75 209.34c0-1.53-7.56-10.05-9.79-8.48-2.22 1.57-.5 3.78-.3 5.5.2 1.7-.94 6.6.24 7.25 1.19.65 3.37-2.52 5.3-4.27 1.56-1.42 4.55 1.54 4.55 0z" style="opacity:.75;fill:#7c7c7c;filter:url(#F)" transform="translate(-16.987948,-19.575154) matrix(-0.09596121,-0.95700905,-0.77476232,0.11853409,398.90188,493.24449)"/>
  <path d="M277.96 90.86c-2.22 1.57-1.25 3.53-.3 5.5.96 1.96-2.1 7.63-2.13 7.88-.03.24 6.02-2.88 7.67-4.9 1.95-2.4 6.88 3.23 6.61 2.38 0-1.54-9.62-12.43-11.85-10.86z" style="fill:#7c7c7c;filter:url(#G)" transform="translate(-16.987948,-19.575154) matrix(1.1522137,0,0,1.1522137,-163.02721,-72.199565)"/>
  <path d="M16.69 165.86c-2.16 1.97 1.01 4.93 2.52 8.4.93 2.17 3.52 5.21 6.03 4.72 1.88-.36 3.05-3.08 2.88-4.99-.35-3.69-3.46-4.55-5.72-5.82-1.8-1-4.2-3.7-5.71-2.3z" style="fill:#838384;filter:url(#H)" transform="translate(-16.987948,-19.575154) translate(160,-57.362183)"/>
  <path d="M-28.63 172.6c1.7 4.94 5.13 9.15 9.18 12.44 1.35 1.1 2.79 2.1 4.37 2.82 1.58.71 3.33 1.12 5.06.97 1.7-.14 3.3-.8 4.8-1.64 1.47-.84 2.85-1.85 4.28-2.76 2.47-1.56 5.1-2.82 7.66-4.22a44.13 44.13 0 0 0 8.67-5.96c1.18-1.08 2.3-2.27 3.6-3.2a7.11 7.11 0 0 1 4.5-1.5c1.2.09 2.32.6 3.5.85a5 5 0 0 0 1.8.1 2.8 2.8 0 0 0 1.6-.78c.51-.53.73-1.3.7-2.04a4.97 4.97 0 0 0-.62-2.1c-.69-1.31-1.74-2.44-2.2-3.84-.42-1.25-.33-2.6-.3-3.92.04-1.31.01-2.68-.6-3.85a5 5 0 0 0-2.12-2.07 7.67 7.67 0 0 0-2.87-.8c-2-.19-4 .2-6 .31-2.65.15-5.32-.18-7.97-.02-3.31.2-6.56 1.16-9.88 1.17-3.78 0-7.57-1.23-11.3-.64-1.6.25-3.14.84-4.68 1.35-1.54.52-3.13.97-4.76.94-1.84-.02-3.63-.66-5.47-.8-.92-.06-1.86 0-2.72.33a3.8 3.8 0 0 0-2.07 1.74c-.24.47-.36 1-.39 1.53-.02.53.05 1.06.18 1.57.26 1.02.73 1.98 1.11 2.97 1.4 3.55 1.7 7.44 2.94 11.05" clip-path="url(#I)" style="fill:#000;fill-opacity:.258824;filter:url(#J)" transform="translate(-16.987948,-19.575154) translate(138.99984,-49.362181)"/>
  <path d="M-54.38 165.47a39.4 39.4 0 0 1 8.77 8.06c2.31 2.88 4.28 6.15 7.3 8.28 2.13 1.51 4.7 2.36 7.3 2.62 3.04.3 6.13-.19 9.07-1.05 2.73-.8 5.37-1.93 7.79-3.42 4.6-2.84 8.44-7 13.5-8.86 1.11-.4 2.27-.7 3.33-1.2a5.22 5.22 0 0 0 2.58-2.32c.5-1.02.47-2.2.63-3.32.17-1.2.56-2.37.77-3.56.2-1.2.23-2.47-.28-3.57a4.61 4.61 0 0 0-2.1-2.08c-.9-.46-1.9-.67-2.9-.72-2.01-.1-4 .42-6 .6-2.65.24-5.31-.1-7.97-.02-3.31.1-6.57.85-9.88 1-3.77.18-7.53-.41-11.3-.55a23.53 23.53 0 0 0-4.89.26c-1.6.28-3.19.82-4.55 1.72-1.32.88-2.4 2.07-3.6 3.1-.6.5-1.25.98-1.96 1.34-.7.36-1.48.6-2.27.64-.4.02-.82-.01-1.22.05-.68.1-1.3.5-1.7 1.05-.4.56-.55 1.28-.42 1.95" clip-path="url(#K)" style="opacity:.3;fill:#000;filter:url(#L)" transform="translate(-16.987948,-19.575154) matrix(1,0,0,0.92110599,159.99984,-43.254675)"/>
  <g>
    <path d="M45.1 224.45c6.09 4.9 9.95 12.29 11.14 20 .93 6.02.33 12.2-1.03 18.13-1.36 5.94-3.45 11.68-5.53 17.4a34.35 34.35 0 0 0-2 7c-.32 2.4-.11 4.95 1.05 7.09 1.33 2.44 3.81 4.13 6.48 4.92 2.63.78 5.48.77 8.15.1 2.66-.66 7.16-1.53 9.33-3.21 5.51-4.28 6.82-11.72 8.13-18.25 1.36-6.81.7-13.95-.5-20.83a140.3 140.3 0 0 0-7.88-27.4 95.48 95.48 0 0 0-9.8-18.53c-3.84-5.67-9.3-10.1-13.33-15.63-1.4-1.93-3.1-3.94-4.47-5.88-2.97-4.2-2.3-3.42-4.14-6.13-1.33-1.97-3.44-2.65-5.66-3.51a11.17 11.17 0 0 0-7-.48 11.05 11.05 0 0 0-6.8 6.09 15.94 15.94 0 0 0-1.04 9.22c.66 4 2.48 7.7 4.55 11.19 2.32 3.93 5.02 7.72 8.53 10.65 3.67 3.05 8.1 5.07 11.82 8.06M-69.53 194.04c-7.07 8.03-14.35 15.81-18.34 24.5-1.98 4.41-2.91 9.2-4.27 13.85a104.8 104.8 0 0 1-5.97 15.34 307.47 307.47 0 0 1-6.94 13.53c-1.74 3.26-3.5 6.58-4.1 10.22a21 21 0 0 0 .53 8.67 39.96 39.96 0 0 0 3.24 8.1c5.66 11.08 14.17 20.63 24.24 27.93a85.15 85.15 0 0 0 14.6 8.53c2.78 1.27 5.71 2.4 8.77 2.45 1.53.03 3.08-.22 4.48-.84a7.94 7.94 0 0 0 3.48-2.88 8.32 8.32 0 0 0 1.16-5.41c-.2-1.87-.93-3.65-1.9-5.26-2.4-3.92-6.17-6.76-9.8-9.57a327.7 327.7 0 0 1-22.69-19.24c-2.05-1.91-4.1-3.88-5.53-6.29a23.54 23.54 0 0 1-2.66-7.7 42.66 42.66 0 0 1 1.46-22.12c.98-2.76 2.27-5.4 3.52-8.04 2.16-4.6 4.2-9.27 7.05-13.47 3.54-5.23 8.27-9.66 11.15-15.28 2.44-4.74 3.42-10.07 4.36-15.32.74-4.1 2.15-8.12 2.87-12.23-1.4 2.67-5.93 7.04-8.7 10.53z" style="fill:#020204" transform="translate(-16.987948,-19.575154) translate(160,-57.362183)"/>
  </g>
  <g>
    <path d="M290.78 216.02c.49.47.98.94 1.5 1.37 3.67 3.06 5.62 6.49 9.34 9.48 6.08 4.9 12.26 13.34 13.45 21.06.94 6.02-.3 9.29-1.8 16.39-1.5 7.1-5.77 17.15-8.08 24-.91 2.72 1.87 1.6 1.5 4.47-.18 1.41-.2 2.84-.03 4.26l.07-.82c.44-3.93 1.62-7.7 2.9-11.4 2.48-7.12 5.32-14.1 7.28-21.4 1.95-7.31 1.74-12.57.72-18.85a31.77 31.77 0 0 0-12.2-20c-4.51-3.4-9.84-5.58-14.65-8.56z" clip-path="url(#N)" style="fill:#838384;filter:url(#M)" transform="translate(-16.987948,-19.575154) matrix(1.0180731,0,0,1,-105.25547,-58.362183)"/>
    <path d="M232.33 224.27a33 33 0 0 0-5.95 7.32c-2.67 4.46-4.24 9.47-6.18 14.29-1.44 3.59-3.13 7.19-3.33 11.05-.1 1.99.2 3.97.26 5.95.07 1.99-.12 4.06-1.1 5.79a7 7 0 0 1-3.72 3.14c2.11.7 4 2.08 5.33 3.87 1.12 1.5 1.83 3.25 2.8 4.85.79 1.3 1.75 2.5 2.94 3.44a8.44 8.44 0 0 0 4.12 1.82 7.26 7.26 0 0 0 5.76-1.85 135.28 135.28 0 0 1 5.15-53.8c.34-1.1.7-2.2.77-3.34a4.8 4.8 0 0 0-.82-3.25 3.54 3.54 0 0 0-4.9-.7c-.5.37-.88.86-1.13 1.42" clip-path="url(#P)" style="opacity:.95;fill:#7c7c7c;filter:url(#O)" transform="translate(-16.987948,-19.575154) translate(-150.00016,-58.362183)"/>
  </g>
  <g>
    <path d="M86.06 328.13a16.61 16.61 0 0 1-2.05 4.41c-1.98 3.02-4.86 5.28-7.73 7.37-4.9 3.57-10 6.84-14.56 10.9a74.18 74.18 0 0 0-8.43 8.96c-2.2 2.74-4.28 5.62-6.8 8.06a23.65 23.65 0 0 1-8.75 5.52 20.67 20.67 0 0 1-11.83.26c-2.65-.7-5.22-1.9-6.86-4.1-1.65-2.2-2.18-5.14-2.37-8.04-.34-5.13.26-10.37.8-15.58.45-4.33.87-8.65 1.04-12.97.31-7.85-.2-15.64-1.23-23.28-.17-1.27-.36-2.56-.26-3.88.1-1.32.54-2.69 1.44-3.7.83-.95 2-1.5 3.15-1.77 1.16-.28 2.33-.3 3.5-.33 2.73-.07 5.49-.24 8.19.01 1.7.16 3.37.47 5.07.64 2.84.28 5.78.14 8.63-.72 3.06-.92 5.98-2.65 9.1-3.13 1.27-.2 2.56-.17 3.8 0 1.27.19 2.53.55 3.5 1.34.74.6 1.28 1.44 1.7 2.32a14.94 14.94 0 0 1 1.25 4.26c.2 1.32.26 2.68.6 3.96.54 2.1 1.78 3.88 3.26 5.34a31.68 31.68 0 0 0 4.96 3.73 55.52 55.52 0 0 0 5.32 3.18c.86.43 1.76.83 2.58 1.33.83.5 1.6 1.12 2.15 1.94a5.6 5.6 0 0 1 .83 3.97" style="opacity:.2;fill:url(#Q);filter:url(#filter15115-3)" transform="translate(-16.987948,-19.575154) matrix(1.0268828,0,0,1,157.6864,-58.362183)"/>
    <use xlink:href="#reuse-1" style="fill:url(#R)" transform="translate(-16.987948,-19.575154)"/>
    <path d="M512.9 328.72c-.63 1.55-1.5 3-2.58 4.26-2.4 2.82-5.73 4.66-9.04 6.32-5.65 2.83-11.5 5.31-16.82 8.73a69.08 69.08 0 0 0-9.92 7.86c-2.63 2.47-5.12 5.12-8.06 7.2a23.37 23.37 0 0 1-10.04 4.19c-4.4.65-8.96-.2-13.06-1.95-2.86-1.22-5.62-2.97-7.27-5.6-1.65-2.61-2.03-5.83-2.04-8.92-.01-5.46 1.02-10.87 1.99-16.25.8-4.47 1.58-8.95 2.06-13.46.9-8.2.85-16.5.3-24.74-.1-1.38-.2-2.77 0-4.14a5.94 5.94 0 0 1 1.83-3.63 5.96 5.96 0 0 1 3.6-1.28c1.3-.07 2.59.14 3.87.33 3.03.44 6.08.78 9.03 1.54 1.87.48 3.69 1.13 5.55 1.63 3.11.83 6.36 1.22 9.56.86 3.44-.4 6.79-1.68 10.25-1.6 1.42.04 2.83.3 4.19.73a8.85 8.85 0 0 1 3.76 2.06c.77.78 1.3 1.75 1.72 2.76a13 13 0 0 1 1.06 4.72c.04 1.7-.33 3.4-.1 5.07a9.64 9.64 0 0 0 1.5 3.81c.74 1.16 1.63 2.21 2.52 3.26 1.72 2.03 3.44 4.1 5.6 5.66 2.45 1.77 5.36 2.8 7.89 4.46.75.5 1.49 1.06 2.02 1.79.9 1.22 1.14 2.9.62 4.33" clip-path="url(#S)" style="fill:#cd8907;filter:url(#T)" transform="translate(-16.987948,-19.575154) translate(-250.00016,-58.362183)"/>
    <path d="M508.8 327.93a14.94 14.94 0 0 1-2.32 3.49 19.26 19.26 0 0 1-8.12 5.17c-5.04 1.77-10.55 2-15.5 4.02-3.01 1.22-5.73 3.07-8.48 4.81a43.61 43.61 0 0 1-6.93 3.76 37.73 37.73 0 0 1-8.62 2.18 28.5 28.5 0 0 1-5.66.39c-1.88-.1-3.78-.51-5.45-1.4a7.36 7.36 0 0 1-3.07-2.92c-.75-1.4-.88-3.06-.86-4.65.04-4.25 1.02-8.45 1-12.7-.03-3.69-.82-7.34-1.05-11.03-.44-7.1 1.2-14.31-.24-21.27-.23-1.12-.54-2.23-.53-3.37.01-.56.1-1.14.32-1.66.21-.53.56-1 1.02-1.34.4-.28.85-.45 1.33-.53.47-.07.95-.06 1.43.01.95.14 1.85.48 2.77.74 2.64.73 5.44.71 8.12 1.26 1.69.35 3.32.91 4.98 1.34 2.8.7 5.72 1 8.6.7 3.08-.34 6.1-1.38 9.2-1.3 1.28.03 2.55.25 3.77.59 1.23.34 2.46.82 3.39 1.69a7.32 7.32 0 0 1 1.54 2.26c.57 1.21.97 2.53.96 3.87 0 .7-.12 1.38-.19 2.08-.07.7-.09 1.4.1 2.07.17.68.55 1.3.98 1.85.42.55.91 1.06 1.35 1.6 1.25 1.51 2.13 3.28 3.1 4.99.97 1.7 2.05 3.39 3.58 4.62 2.08 1.67 4.78 2.34 7.1 3.66.68.39 1.33.84 1.81 1.46a3.77 3.77 0 0 1 .56 3.56" clip-path="url(#U)" style="fill:#f5c021;filter:url(#V)" transform="translate(-16.987948,-19.575154) matrix(1.1429721,0,0,1.2323048,-318.99817,-135.48838)"/>
    <path d="M187.3 230.29c3.29-.89 6.08 1.6 8.45 3.47 1.54 1.3 3.75.98 5.64 1.04 3.12-.11 6.22.52 9.35.14 6.14-.52 12.16-2.03 18.34-2.3 2.95-.18 6.26-.35 8.8 1.37 1.04.72 2.55 3.74 3.57 2.6-.42-3.17-2.78-6.25-5.94-7.1-2.47-.38-4.99.3-7.49.08-7.42-.18-14.79-1.56-22.23-1.16-5.18.04-10.35-.2-15.52-.4-2.03-.41-2.74 1.39-3.84 2.08" clip-path="url(#W)" style="fill:url(#X);filter:url(#filter17044)" transform="translate(-16.987948,-19.575154)"/>
    <g>
      <path d="M57.58 222.66c1.6-.67 3.4-.79 5.1-.47 1.7.31 3.3 1.05 4.74 2.02 2.87 1.95 4.99 4.78 7.02 7.58 4.68 6.43 9.17 13 13.25 19.83 3.3 5.54 6.34 11.26 10.16 16.45 2.5 3.4 5.3 6.54 7.82 9.92 2.5 3.39 4.72 7.06 5.84 11.12a22.3 22.3 0 0 1-1.63 15.95 21.07 21.07 0 0 1-7.77 8.34 20.04 20.04 0 0 1-11.02 2.87c-6.11-.23-11.7-3.28-17.38-5.55-11.59-4.6-24.16-6.06-36.1-9.65-3.67-1.1-7.28-2.4-10.97-3.42-1.64-.46-3.3-.85-4.86-1.56-1.55-.7-3-1.75-3.86-3.21a7.29 7.29 0 0 1-.93-3.79c.02-1.31.32-2.61.77-3.85.9-2.47 2.35-4.71 3.32-7.16 1.6-3.99 1.88-8.39 1.67-12.68-.22-4.29-.91-8.54-1.2-12.83-.14-1.91-.19-3.85.18-5.73a9.47 9.47 0 0 1 2.56-5.06 9.52 9.52 0 0 1 4.7-2.32c1.73-.36 3.5-.37 5.28-.33 1.77.04 3.54.13 5.3-.01 1.76-.15 3.53-.54 5.07-1.42a11.99 11.99 0 0 0 3.64-3.44c1-1.36 1.8-2.84 2.61-4.31a27.6 27.6 0 0 1 2.74-4.23 10.44 10.44 0 0 1 3.95-3.06" style="fill:url(#Y)" transform="translate(-16.987948,-19.575154)"/>
      <path d="M-99.89 282.78a7.82 7.82 0 0 1 4.62-.3c1.53.34 2.95 1.08 4.2 2.04 2.47 1.92 4.19 4.62 5.84 7.27a471.12 471.12 0 0 1 11.52 19.57c2.78 5 5.43 10.09 8.84 14.68 2.26 3.04 4.85 5.83 7.16 8.83 2.3 3 4.37 6.29 5.39 9.94 1.32 4.7.78 9.9-1.5 14.23a18.98 18.98 0 0 1-7.18 7.51 18.5 18.5 0 0 1-10.09 2.49c-5.6-.26-10.71-3.05-15.98-4.95-10.1-3.67-21.05-4.16-31.42-7.02-3.71-1-7.33-2.35-11.07-3.3-1.65-.41-3.33-.75-4.9-1.41a7.95 7.95 0 0 1-3.9-3.17 6.9 6.9 0 0 1-.84-3.65c.04-1.27.36-2.51.8-3.7.91-2.36 2.33-4.5 3.24-6.87 1.38-3.58 1.55-7.5 1.3-11.33-.26-3.82-.93-7.6-1.16-11.43-.1-1.71-.12-3.44.22-5.12a8.78 8.78 0 0 1 2.3-4.5 8.93 8.93 0 0 1 4.98-2.31c1.83-.28 3.7-.16 5.55 0 1.85.17 3.7.38 5.56.27 1.86-.12 3.74-.57 5.27-1.61 1.4-.95 2.45-2.33 3.25-3.8.8-1.47 1.36-3.06 1.97-4.62.61-1.56 1.27-3.12 2.22-4.5a8.7 8.7 0 0 1 3.81-3.24" clip-path="url(#Z)" style="fill:#d99a03;filter:url(#aa)" transform="translate(-16.987948,-19.575154) translate(160,-57.362183)"/>
      <path d="M138.75 281.24a7.1 7.1 0 0 1 4.62-.54 9.8 9.8 0 0 1 4.2 2.1c2.43 2 3.98 4.87 5.41 7.68 3.31 6.45 6.39 13.05 10.34 19.13 2.87 4.4 6.18 8.51 9.08 12.9 3.94 5.95 7.14 12.5 8.46 19.51.89 4.72.86 9.8-1.37 14.06a15.51 15.51 0 0 1-6.67 6.52 16.99 16.99 0 0 1-9.18 1.74c-4.96-.45-9.46-2.93-14.12-4.66-8.28-3.07-17.22-3.8-25.74-6.12-3.59-.97-7.1-2.23-10.75-3-1.6-.35-3.24-.6-4.77-1.19a7.04 7.04 0 0 1-3.77-3 6.14 6.14 0 0 1-.66-3.36c.08-1.15.42-2.28.87-3.34.88-2.14 2.2-4.1 2.89-6.3 1.01-3.24.6-6.76-.17-10.07-.76-3.3-1.85-6.56-2.2-9.94a14 14 0 0 1 .2-4.51 8 8 0 0 1 2.1-3.95 8.72 8.72 0 0 1 5.3-2.23c1.93-.2 3.88.07 5.81.35 1.93.28 3.87.59 5.82.5a9.42 9.42 0 0 0 5.45-1.83 9.51 9.51 0 0 0 3-4.83c.54-1.85.72-3.78.94-5.7.23-1.91.5-3.84 1.23-5.63a8.17 8.17 0 0 1 3.68-4.3" clip-path="url(#ab)" style="fill:#f5bd0c;filter:url(#ac)" transform="translate(-16.987948,-19.575154) matrix(1,0,0,0.98204782,-80.00015,-54.40321)"/>
      <path d="M76.4 237.6c2.61 4.72 4.2 10.13 6.79 14.88 2.38 4.37 5.08 8.88 7.5 12.9 1.07 1.8 3.58 4.56 6.12 8.85 2.3 3.88 4.62 9.3 5.91 11.11-.74-2.13-2.28-7.84-4.1-11.92-1.71-3.81-3.7-5.98-4.93-8.03-2.42-4.03-5.02-7.66-7.5-11.5-3.43-5.3-6.04-11.24-9.78-16.28z" style="fill:url(#ad);filter:url(#filter14176-5)" transform="translate(-16.987948,-19.575154)"/>
    </g>
  </g>
  <g>
    <path d="M231.48 237.28a5.33 5.33 0 0 0-2.73-2.4 9.24 9.24 0 0 0-3.63-.62c-2.47.02-4.93.66-7.4.45-2.08-.18-4.06-.97-6.09-1.46a12.9 12.9 0 0 0-6.4-.14 9.42 9.42 0 0 0-5.42 4.04 12.7 12.7 0 0 0-1.76 5.78c-.17 2.03 0 4.07.21 6.1.15 1.45.32 2.92.67 4.35.36 1.43.9 2.82 1.77 4.01a10.84 10.84 0 0 0 5.07 3.68 14.09 14.09 0 0 0 10.13-.18 27.94 27.94 0 0 0 13.37-12.3 26.2 26.2 0 0 0 2.38-6.16c.2-.85.37-1.72.38-2.6a5.5 5.5 0 0 0-.55-2.55" style="opacity:.35;fill:url(#ae);filter:url(#filter14897-2)" transform="translate(-16.987948,-19.575154)"/>
    <path d="M71.48 295.64a5.33 5.33 0 0 0-2.73-2.4 9.24 9.24 0 0 0-3.63-.62c-2.47.02-4.93.66-7.4.45-2.08-.18-4.06-.96-6.09-1.46a12.9 12.9 0 0 0-6.4-.14 9.42 9.42 0 0 0-5.42 4.04 12.7 12.7 0 0 0-1.76 5.78c-.17 2.03 0 4.07.21 6.1.15 1.46.32 2.92.67 4.35.36 1.43.9 2.82 1.77 4.02a10.84 10.84 0 0 0 5.07 3.67 14.09 14.09 0 0 0 10.13-.18 27.94 27.94 0 0 0 13.37-12.3 26.2 26.2 0 0 0 2.38-6.16c.2-.85.37-1.72.38-2.6a5.5 5.5 0 0 0-.55-2.55" style="opacity:.35;fill:url(#af);filter:url(#filter14951-8)" transform="translate(-16.987948,-19.575154) matrix(1,0,0,0.72292525,159.99984,20.396294)"/>
  </g>
  <g>
    <path d="M76.19 285.33a7.32 7.32 0 0 0-2-2.87 10.6 10.6 0 0 0-2.98-1.85c-2.16-.92-4.52-1.27-6.83-1.7-2.18-.4-4.34-.9-6.53-1.28-2.27-.38-4.61-.63-6.86-.12a11.72 11.72 0 0 0-5.27 2.82 15.07 15.07 0 0 0-3.49 4.89 21.12 21.12 0 0 0-1.65 10.4c.2 2.63.87 5.35 2.6 7.34a11.37 11.37 0 0 0 5.44 3.22 18.4 18.4 0 0 0 10.86-.16 28.59 28.59 0 0 0 14.33-10.77 15.78 15.78 0 0 0 2.56-5.4 8.04 8.04 0 0 0-.18-4.52" style="fill:#020204" transform="translate(-16.987948,-19.575154) translate(159.99984,-58.362183)"/>
    <use xlink:href="#reuse-3" clip-path="url(#ah)" style="fill:url(#ag);filter:url(#filter14812-5)" transform="translate(-16.987948,-19.575154) translate(-150.00016,-58.362183)"/>
    <use xlink:href="#reuse-3" clip-path="url(#aj)" style="fill:url(#ai);filter:url(#filter14812-0-9)" transform="translate(-16.987948,-19.575154) translate(-150.00016,-58.36218)"/>
  </g>
  <g>
    <path d="M-24.77 113.36c-1.78.1-3.48.92-4.79 2.14a10.82 10.82 0 0 0-2.78 4.5c-1.13 3.39-.88 7.05-.62 10.61.23 3.22.47 6.5 1.68 9.5a12.4 12.4 0 0 0 2.58 4.07 8.86 8.86 0 0 0 4.12 2.43c1.46.37 3.03.3 4.48-.16a9.7 9.7 0 0 0 3.84-2.34 12.9 12.9 0 0 0 3.26-5.69c.6-2.12.78-4.35.75-6.56-.04-2.76-.4-5.54-1.27-8.16a18.38 18.38 0 0 0-4.17-7.09c-.93-.96-2-1.8-3.2-2.4a7.88 7.88 0 0 0-3.88-.85" style="fill:url(#ak)" transform="translate(-16.987948,-19.575154) translate(138.99984,-49.362181)"/>
    <path d="M159.94 137.11c-.37 2.25-.39 4.6.39 6.75.5 1.4 1.35 2.7 2.37 3.8a7.87 7.87 0 0 0 2.31 1.8c.9.42 1.92.6 2.87.36a4.24 4.24 0 0 0 2.22-1.5 7.3 7.3 0 0 0 1.22-2.41c.8-2.56.67-5.36-.12-7.93a10.33 10.33 0 0 0-3.03-4.92 6.02 6.02 0 0 0-2.45-1.3 4.28 4.28 0 0 0-2.74.23 4.71 4.71 0 0 0-2.15 2.16 9.87 9.87 0 0 0-.9 2.96" style="fill:#020204" transform="translate(-16.987948,-19.575154) translate(-50.00015,-58.362183)"/>
    <path d="M114.69 77.12c.24.64 1.05.87 1.5 1.38.43.5.88 1.01 1.12 1.62.46 1.18-.45 2.92.5 3.75.3.27.9.27 1.19 0 1.15-1.04.9-3.14.44-4.62a5.6 5.6 0 0 0-2.68-3.26c-.58-.29-1.45-.54-1.95-.12-.32.28-.27.86-.12 1.25z" style="fill:url(#al);filter:url(#filter29493-2)" transform="translate(-16.987948,-19.575154)"/>
    <path d="M50.4 129.53c2.68-1.6 5.95-1.97 9.06-1.68 3.11.3 6.12 1.21 9.14 2.03 2.21.6 4.45 1.16 6.53 2.14 2.07.97 4 2.41 5.14 4.4.18.32.34.65.54.96.2.32.42.61.71.83.3.23.66.37 1.03.35.18-.01.36-.06.52-.16a1 1 0 0 0 .38-.39c.1-.18.13-.4.12-.61a2.94 2.94 0 0 0-.12-.62c-.76-2.76-2.54-5.1-3.89-7.6-.81-1.51-1.48-3.1-2.3-4.6-2.82-5.16-7.44-9.22-12.7-11.85-5.26-2.63-11.13-3.9-17-4.24-6.8-.4-13.62.41-20.33 1.6-2.9.5-5.86 1.1-8.43 2.55a11.53 11.53 0 0 0-3.39 2.81 8.4 8.4 0 0 0-1.79 4c-.2 1.4.01 2.86.5 4.2.5 1.33 1.26 2.56 2.16 3.66 1.8 2.2 4.1 3.93 6.22 5.83s4.1 4 6.47 5.56c1.18.79 2.47 1.44 3.84 1.82 1.37.38 2.83.49 4.22.2 1.45-.3 2.79-1 3.96-1.9 1.17-.9 2.18-1.98 3.14-3.1 1.93-2.23 3.73-4.68 6.26-6.2" clip-path="url(#am)" style="fill:url(#an)" transform="translate(-16.987948,-19.575154) translate(59.99984,-58.362183)"/>
    <path d="M-38.44 119.38a23.64 23.64 0 0 1 5.63 8.3c-.55-3.38-1.43-6.1-3.63-8.3a17.01 17.01 0 0 0-4.62-3.16 12.44 12.44 0 0 0-4.18-1.13c-.97-.01-1.2 0-1.4.02-.2 0-.36.01.27.08.63.08 2.03.46 3.54 1.13 1.5.68 3.04 1.8 4.4 3.06z" style="fill:url(#ao);filter:url(#filter29447-1)" transform="translate(-16.987948,-19.575154) translate(160,-57.362183)"/>
    <g>
      <path d="M6.75 113.36a16.34 16.34 0 0 0-6.25 7.75c-1.44 4-.89 8.48.5 12.5 1.42 4.12 3.8 8.04 7.38 10.51a13.51 13.51 0 0 0 6.03 2.34 11 11 0 0 0 6.34-1.1 12.22 12.22 0 0 0 5.26-5.78 21.17 21.17 0 0 0 1.74-7.72c.19-3.37-.14-6.8-1.25-10-1.2-3.47-3.39-6.67-6.47-8.66-1.54-1-3.3-1.69-5.11-1.94a10.9 10.9 0 0 0-5.42.6c-.98.38-1.89.91-2.75 1.5" style="fill:url(#ap)" transform="translate(-16.987948,-19.575154) translate(138.99984,-49.362181)"/>
      <path d="M302.16 130.76a6.44 6.44 0 0 0-2.95.99 7.76 7.76 0 0 0-2.24 2.18 11.26 11.26 0 0 0-1.79 5.94c-.06 1.57.11 3.16.63 4.65a8.77 8.77 0 0 0 2.62 3.86 7.43 7.43 0 0 0 8.99.41 8.2 8.2 0 0 0 2.5-2.87c.6-1.13.97-2.38 1.13-3.65.3-2.25-.04-4.6-1.07-6.61a9.26 9.26 0 0 0-4.93-4.46 6.96 6.96 0 0 0-2.89-.44" style="fill:#020204" transform="translate(-16.987948,-19.575154) translate(-150.00015,-58.362183)"/>
      <path d="M154.66 79.25c-.87.34-2.24.13-2.62.98-.23.5.1 1.33.6 1.54 1.04.42 2.64-.34 3.05-1.38.18-.45-.1-1.16-.54-1.35-.16-.07-.33.14-.5.21z" style="fill:#141413;filter:url(#aq)" transform="translate(-16.987948,-19.575154)"/>
      <path d="M158.62 81.5c1.17-1.16-.82-4.24-2.37-5.5-1.12-.91-4.4-1.87-4.25-.88.14 1 1.61 2.27 2.6 3.24 1.2 1.2 3.47 3.7 4.02 3.14z" style="fill:url(#ar);filter:url(#filter28949-8)" transform="translate(-16.987948,-19.575154)"/>
      <path d="M75.25 132.49a23.71 23.71 0 0 1 8.12-4.4 22.4 22.4 0 0 1 18.38 2.27c1.86 1.18 3.51 2.64 5.24 4a20.09 20.09 0 0 0 5.64 3.38c1.12.4 2.31.62 3.5.5a6.5 6.5 0 0 0 2.98-1.12 7.6 7.6 0 0 0 2.18-2.34 10.25 10.25 0 0 0 1.28-6.2c-.38-4.28-2.8-8.06-4.82-11.84-.63-1.19-1.24-2.4-2-3.5-2.34-3.4-6.07-5.64-9.98-6.95-3.92-1.31-8.05-1.79-12.15-2.3-1.82-.23-3.67-.47-5.5-.25-2.1.25-4.07 1.1-6.12 1.62-.97.25-1.96.43-2.93.7a7.7 7.7 0 0 0-2.7 1.3 6.5 6.5 0 0 0-2.17 3.73 11.9 11.9 0 0 0-.01 4.37c.45 2.9 1.54 5.72 1.44 8.65-.08 2.01-.7 3.99-.63 6 .02.6.1 1.18.25 1.75" clip-path="url(#as)" style="fill:url(#at)" transform="translate(-16.987948,-19.575154) translate(59.99984,-58.362183)"/>
      <path d="M-4.6 113.13c-.47.6-.9 1.25-1.24 1.96 2.14.47 4.2 1.35 6.03 2.57 3.54 2.35 6.23 5.8 8.12 9.62.44-.49.84-1.01 1.19-1.6-1.9-3.98-4.64-7.59-8.31-10.02a17.78 17.78 0 0 0-5.78-2.53z" style="fill:url(#au);filter:url(#filter29350-1)" transform="translate(-16.987948,-19.575154) translate(160,-57.362183)"/>
    </g>
    <g>
      <path d="M-16.4 136.86c1.77-1.98 2.98-4.4 4.67-6.45a11.19 11.19 0 0 1 2.99-2.62 6.62 6.62 0 0 1 3.81-.93c1.48.13 2.86.86 3.94 1.88a12 12 0 0 1 2.52 3.62c.6 1.28 1.1 2.64 1.97 3.75.95 1.19 2.26 2 3.46 2.93.6.46 1.16.96 1.63 1.56a4.21 4.21 0 0 1 .8 4.28c-.25.72-.7 1.37-1.25 1.9a7.42 7.42 0 0 1-4.13 1.86c-3.04.43-6.12-.48-9.19-.4-3.1.1-6.14 1.19-9.25 1.08a8.22 8.22 0 0 1-4.4-1.33 5.57 5.57 0 0 1-1.6-1.67 4.6 4.6 0 0 1-.22-4.37c.3-.68.7-1.3 1.18-1.87.94-1.15 2.09-2.11 3.07-3.22" style="fill:url(#av)" transform="translate(-16.987948,-19.575154) translate(138.99984,-49.362181)"/>
      <path d="M45.75 165.03c.06.3.17.58.33.84.26.45.65.8 1.07 1.11.42.3.87.56 1.31.84a23.7 23.7 0 0 1 5.93 5.7c2.27 2.93 4.27 6.17 7.3 8.3a15.4 15.4 0 0 0 7.3 2.61c3.04.3 6.13-.19 9.07-1.05 2.73-.8 5.37-1.93 7.79-3.42 4.6-2.84 8.44-7 13.5-8.86 1.11-.4 2.27-.7 3.33-1.2a5.22 5.22 0 0 0 2.58-2.32c.5-1.02.47-2.2.63-3.32.17-1.2.56-2.37.77-3.56.2-1.2.23-2.47-.28-3.57a4.62 4.62 0 0 0-2.1-2.08c-.9-.46-1.9-.67-2.9-.72-2.01-.1-4 .42-6 .6-2.65.24-5.31-.1-7.97-.02-3.31.1-6.57.85-9.88 1-3.77.19-7.53-.4-11.3-.55a23.34 23.34 0 0 0-4.9.23c-1.6.28-3.2.82-4.54 1.75-1.3.9-2.35 2.14-3.56 3.19-.6.52-1.25 1-1.96 1.34-.72.35-1.51.57-2.3.55-.42 0-.84-.08-1.23.05-.24.08-.46.23-.64.4-.19.18-.34.4-.48.6-.33.5-.62 1.02-.87 1.56" style="fill:url(#aw)" transform="translate(-16.987948,-19.575154) translate(59.99984,-58.362183)"/>
      <path d="M60.56 169.1a6.7 6.7 0 0 0 .64 4.77 6.7 6.7 0 0 0 3.7 3.07c1.98.66 4.2.34 6.06-.62a6.6 6.6 0 0 0 2.67-2.39c.3-.52.52-1.1.6-1.7.08-.6.03-1.21-.18-1.78a3.88 3.88 0 0 0-1.15-1.6c-.5-.42-1.1-.73-1.73-.94a10.85 10.85 0 0 0-3.94-.36c-2 .1-4 .35-5.97.75" style="fill:#d9b30d;filter:url(#ax)" transform="translate(-16.987948,-19.575154) translate(59.99984,-58.362183)"/>
      <path d="M54.07 156.68c-1.34.8-2.63 1.66-3.9 2.56-.66.47-1.34.97-1.68 1.7-.25.51-.3 1.1-.31 1.67 0 .57.03 1.14-.05 1.7-.05.4-.15.77-.17 1.16 0 .2 0 .4.06.58.05.19.14.37.27.51.17.18.41.3.65.37.24.07.5.11.74.17 1.17.28 2.2 1 3.1 1.8.89.81 1.7 1.72 2.63 2.48 2.54 2.06 5.89 2.92 9.16 2.97 3.27.06 6.5-.63 9.7-1.35 2.5-.56 5.01-1.15 7.42-2.04a32.73 32.73 0 0 0 10.12-6.02c1.35-1.18 2.62-2.47 4.13-3.42 1.34-.84 2.84-1.4 4.2-2.2.13-.07.25-.15.36-.24.11-.09.2-.2.27-.32.1-.22.1-.48.04-.72a1.9 1.9 0 0 0-.36-.63c-.17-.21-.36-.4-.57-.58-1.42-1.22-3.36-1.66-5.23-1.81-1.87-.15-3.76-.04-5.6-.35-1.74-.3-3.4-.94-5.08-1.48a35.67 35.67 0 0 0-18.37-.99 37.93 37.93 0 0 0-11.53 4.48" style="fill:#604405;filter:url(#ay)" transform="translate(-16.987948,-19.575154) translate(59.99984,-58.362183)"/>
      <path d="M53.64 152.15a23.76 23.76 0 0 0-5.14 4.69 11.11 11.11 0 0 0-2.02 3.41c-.34 1-.45 2.04-.66 3.07-.08.38-.17.77-.17 1.16 0 .2.03.4.09.58.06.18.15.36.3.5.22.24.53.36.85.43.32.06.64.07.96.1 1.46.17 2.8.88 4 1.71 1.21.83 2.32 1.8 3.56 2.58 2.73 1.73 6 2.5 9.23 2.62 3.23.13 6.45-.36 9.63-1 2.52-.5 5.03-1.1 7.42-2.04 3.66-1.44 6.97-3.67 10.12-6.02a42.4 42.4 0 0 0 4.13-3.42c.44-.42.86-.86 1.33-1.24.47-.39.99-.73 1.57-.91.88-.28 1.83-.2 2.74-.05.7.11 1.38.27 2.08.24.34-.01.7-.07 1.02-.2.32-.13.62-.33.84-.6.3-.36.44-.82.44-1.27 0-.46-.14-.92-.37-1.31a4.47 4.47 0 0 0-2.1-1.7c-1.15-.5-2.4-.76-3.61-1.05a51.68 51.68 0 0 1-10.84-3.95c-1.71-.86-3.38-1.8-5.07-2.7a29.91 29.91 0 0 0-5.39-2.4c-4.21-1.28-8.82-.86-12.97.59a27.75 27.75 0 0 0-11.97 8.18" style="fill:url(#az)" transform="translate(-16.987948,-19.575154) translate(59.99984,-58.362183)"/>
      <path d="M83.24 153.08a1.8 1.8 0 0 0-.9-.6c-.35-.1-.73-.1-1.09-.04-.72.12-1.36.51-1.96.92a22.34 22.34 0 0 0-4.54 4.23c-1.75 2.12-3.19 4.58-3.67 7.28-.08.45-.13.92-.08 1.38.06.46.24.91.56 1.24.29.3.68.47 1.08.52.4.06.82 0 1.2-.12.77-.26 1.41-.8 2.02-1.34 3.33-2.99 6.35-6.57 7.56-10.88.12-.44.22-.88.22-1.33 0-.45-.12-.9-.4-1.26" style="fill:#f6da4a;filter:url(#aA)" transform="translate(-16.987948,-19.575154) translate(59.99984,-58.362183)"/>
      <path d="M135.25 88.53c.23.74 1.43.62 2.12.97.6.32 1.1 1 1.78 1.02.65.02 1.66-.23 1.75-.87.1-.85-1.14-1.4-1.94-1.7-1.03-.41-2.35-.61-3.32-.08-.22.13-.46.42-.39.66z" style="opacity:.8;fill:url(#aB);filter:url(#filter15177-1)" transform="translate(-16.987948,-19.575154)"/>
      <path d="M123.83 88.1c-.9-.28-2.36 1.29-1.88 2.09.13.22.53.5.8.35.41-.23.75-1.03 1.2-1.35.29-.2.22-.97-.12-1.08z" style="opacity:.8;fill:url(#aC);filter:url(#filter15173-0)" transform="translate(-16.987948,-19.575154)"/>
      <path d="M245.9 158.28a2.6 2.33 0 0 1-2.6 2.33 2.6 2.33 0 0 1-2.61-2.33 2.6 2.33 0 0 1 2.6-2.32 2.6 2.33 0 0 1 2.61 2.32z" clip-path="url(#aE)" style="fill:url(#aD);filter:url(#filter28584-4)" transform="translate(-16.987948,-19.575154) matrix(1.0956223,0,-0.17017853,1.5181314,-76.24447,-140.47964)"/>
    </g>
  </g>
</svg>
