<!-- Public Domain. SVG minimized for space. See '3RD_PARTY_LICENSES.md' for more details -->
<svg xmlns="http://www.w3.org/2000/svg" xml:space="preserve" width="269.6" height="154.4" viewBox="0 0 270 154">
  <g fill="#0067A4">
    <path d="M200 89c-1-7-4-12-8-18-8-10-21-17-38-17-28 0-44 19-49 38-5-13-17-23-29-27 9-7 14-16 14-28 0-10-4-20-11-26C68 2 53 0 35 0H0v152h56c26-1 43-14 49-34 2 9 5 16 10 21 10 11 24 15 39 15 17 0 30-5 39-13l-12-14c-7 4-15 7-24 7-18 0-26-11-26-22h69v40h26V1h-26v88zM27 21h7c7 0 13 0 17 2 8 3 11 9 11 17 0 7-2 17-16 20l-11 1h-8V21zm29 109H27V81h17l15 1c12 4 19 12 19 23 0 12-7 22-22 25zm75-37c2-11 10-19 23-19 12 0 20 7 22 19h-45zM244 1h26v151h-26z"/>
  </g>
</svg>
