<!-- Public Domain. SVG minimized for space. See '3RD_PARTY_LICENSES.md' for more details -->
<svg xmlns="http://www.w3.org/2000/svg" xml:space="preserve" width="1320" height="210" viewBox="9 2.5 132 21">
  <path fill="#6b6b6b" d="M124.52 23.06V2.34h-2.3v17.02l-12.5-17.03h-2.1v20.72h2.3V6.4l12.3 16.66zM95.65 1.86c-5.83 0-9.9 4.46-9.9 10.83 0 6.39 4.07 10.84 9.9 10.84 5.82 0 9.88-4.46 9.88-10.84s-4.06-10.83-9.88-10.83m0 19.48c-4.44 0-7.55-3.56-7.55-8.65s3.11-8.64 7.55-8.64c4.43 0 7.52 3.55 7.52 8.64 0 5.1-3.09 8.65-7.52 8.65m31.47-19.01v20.73h14.6v-2.03h-12.3v-7.66h11.4v-2.03h-11.4V4.35h12.2V2.33z"/>
  <g fill="#177d3e">
    <path d="M78.52 2.34h2.8l-7.3 9.88 8 10.86h-2.8l-6.6-9-6.6 9h-2.7l7.9-10.86-7.2-9.88h2.7l5.9 8.06z"/>
    <path d="M55.53 1.86c-5.82 0-9.9 4.46-9.9 10.83 0 6.4 4.07 10.84 9.9 10.84 5.82 0 9.88-4.45 9.88-10.84 0-6.38-4.06-10.83-9.88-10.83m0 19.48c-4.44 0-7.55-3.56-7.55-8.65 0-5.08 3.11-8.64 7.55-8.64 4.43 0 7.52 3.56 7.52 8.64 0 5.1-3.09 8.65-7.52 8.65m-46.6 1.74h2.73l6.62-9 6.62 9h2.73l-7.98-10.86 7.28-9.88H24.2l-5.93 8.06-5.92-8.06H9.63l7.27 9.88z"/>
    <path d="M42.79 13a5.96 5.96 0 0 0-1.36-.86 4.7 4.7 0 0 0 2.5-4.16c0-1.32-.5-5.64-6.75-5.64h-8.42v8.94h-2.8a60.63 60.63 0 0 0-1.51 2.08h4.31v9.72h8.42c4.57 0 7.4-2.32 7.4-6.05 0-1.64-.62-3.03-1.79-4.03m-11.7-8.5h6.1c1.64 0 4.4.41 4.4 3.3 0 2.18-1.6 3.48-4.4 3.48h-6.1V4.51zm6.1 16.41h-6.1v-7.55h6.1c2.3 0 5.07.64 5.07 3.62 0 3.42-3.18 3.93-5.08 3.93"/>
  </g>
</svg>
