{
  "page_data": {
    "title": "Grand Theft Auto: Vice City - 100% Completion Checklist",
    "background": "_default_tmp.png",
    "parent_template": "100_checklist",
    "additional_css": "100_checklist",
    "additional_js": "100_checklist"
  },
  "schema_type": "100_checklist",
  "heading": "Grand Theft Auto: Vice City - 100% Completion Checklist",
  "preamble": [
    "<p>Reaching 100% completion in Grand Theft Auto: Vice City requires the completion of numerous tasks, ranging",
    "from story missions, to collectibles, to odd jobs, to empire building.</p>",
    "<p>Differently from the predecessor, there are no lock-out possibilities that make reaching 100% completion",
    "impossible. On the other hand, though, some unique vehicles can be obtained only before 100% completion is",
    "reached, in case you want to collect them.</p>",
    "<p>These suggestions, along with additional tips related to odd jobs or traffic spawns, are also provided to make",
    "the completion of some tasks easier. It is always possible to hide unwanted information.</p>"
  ],
  "extra_types": {
    "fixed_spawn": {
      "parent": "info",
      "friendly_name": "Vehicle Fixed Spawn Locations",
      "format": "Fixed Spawn Locations: {;}",
      "can_disable": true
    },
    "location": {
      "parent": "info",
      "friendly_name": "Pick-up Locations",
      "format": "Location: {}",
      "can_disable": true
    },
    "traffic_spawn": {
      "parent": "info",
      "friendly_name": "Vehicle Traffic Spawn Locations",
      "format": "Spawns in traffic in: {;}",
      "can_disable": true
    },
    "uv": {
      "parent": "info",
      "friendly_name": "Unique Vehicles",
      "format": "Unique Vehicle: {}",
      "can_disable": true,
      "help_text": {
        "AP": "All Proof (Bullet, Damage, Explosion, Fire)",
        "BP": "Bullet Proof",
        "DP": "Damage Proof",
        "EC": "Exclusive Color",
        "EC2": "Exclusive Secondary Color",
        "EP": "Explosion Proof",
        "FP": "Fire Proof",
        "H": "Heavy (Cannot be saved in a garage)",
        "OM0": "onMission = 0",
        "PP": "Pop Proof Tyres (Cannot be saved in a garage)",
        "TP": "Tip Proof (Cannot be saved in a garage)",
        "U": "Unique"
      }
    }
  },
  "checklist": [
    {
      "id": "Story Missions",
      "contents": [
        {
          "id": "The Introduction",
          "contents": [
            [
              "In The Beginning...",
              {
                "type": "uv",
                "content": "EC White Admiral; might require completing \"Paramedic\""
              }
            ],
            "An Old Friend"
          ]
        },
        {
          "id": "Ken Rosenberg",
          "contents": [
            [
              "The Party",
              {
                "type": "info",
                "content": "Allows for Exclusive Color (Black) conversions through OM0; see guide"
              }
            ],
            "Back Alley Brawl",
            [
              "Jury Fury",
              {
                "type": "uv",
                "content": "U Spand Express (1/2)"
              }
            ],
            [
              "Riot",
              {
                "type": "uv",
                "content": "U Spand Express (2/2)"
              }
            ]
          ]
        },
        {
          "id": "Avery Carrington",
          "contents": [
            [
              "Four Iron",
              {
                "type": "uv",
                "content": "EC Black Stretch (1/3); requires OM0, a mission failure, and a suicide"
              }
            ],
            [
              "Demolition Man",
              {
                "type": "uv",
                "content": "EC Black Stretch (2/3); requires OM0, and prevents 100% completion"
              }
            ],
            [
              "Two Bit Hit",
              {
                "type": "warn",
                "content": "The mission should be completed after \"Cop Land\", \"No Escape?\", and \"The Job\" to prevent the Havana outfit from being unobtainable."
              },
              {
                "type": "uv",
                "content": "EC Black Stretch (3/3); requires OM0, possibly failures"
              },
              {
                "type": "uv",
                "content": "EC Black Voodoo"
              },
              {
                "type": "uv",
                "content": "U/EC2 Romero's Hearse"
              },
              {
                "type": "uv",
                "content": "U/FP Romero's Hearse"
              }
            ]
          ]
        },
        {
          "id": "Juan Cortez",
          "contents": [
            "Treacherous Swine",
            "Mail Shootout",
            [
              "Guardian Angels",
              {
                "type": "uv",
                "content": "AP/EC/PP Silver Admiral"
              }
            ],
            [
              "Sir, Yes Sir!",
              {
                "type": "uv",
                "content": "EC2 Patriot (1/2); not unique as it spawns in Fort Baxter"
              }
            ],
            [
              "All Hands On Deck!",
              {
                "type": "uv",
                "content": "EC Black Washington"
              }
            ]
          ]
        },
        {
          "id": "Ricardo Diaz",
          "contents": [
            "The Chase",
            [
              "Phnom Penh '86",
              {
                "type": "uv",
                "content": "AP Maverick; not on guide, requires OM0, 1 suicide, 1 additional mission attempt, and skill"
              }
            ],
            "The Fastest Boat",
            [
              "Supply & Demand",
              {
                "type": "uv",
                "content": "BP/EP/FP Squalo; requires a mission failure"
              },
              {
                "type": "uv",
                "content": "DP/EP/FP Squalo; requires a mission failure, DP does not register on boats"
              }
            ],
            "Rub Out"
          ]
        },
        {
          "id": "Kent Paul",
          "contents": [
            "Death Row"
          ]
        },
        {
          "id": "Earnest Kelly",
          "contents": [
            "Cap the Collector"
          ]
        },
        {
          "id": "Tommy Vercetti",
          "contents": [
            "Keep Your Friends Close..."
          ]
        }
      ]
    },
    {
      "id": "Gang Missions",
      "contents": [
        {
          "id": "Umberto Robina",
          "contents": [
            "Stunt Boat Challenge",
            "Cannon Fodder",
            "Naval Engagement",
            [
              "Trojan Voodoo",
              {
                "type": "uv",
                "contents": "FP Voodoo; Japanese version exclusive"
              }
            ]
          ]
        },
        {
          "id": "Auntie Poulet",
          "contents": [
            "Juju Scramble",
            "Bombs Away!",
            "Dirty Lickin's"
          ]
        },
        {
          "id": "Love Fist",
          "contents": [
            "Love Juice",
            [
              "Psycho Killer",
              {
                "type": "uv",
                "content": "U Love Fist (1/2); PlayStation 2 exclusive, not unique on other releases"
              }
            ],
            [
              "Publicity Tour",
              {
                "type": "uv",
                "content": "U Love Fist (2/2); Playstation 2 exclusive, not unique on other releases, requires a mission failure"
              }
            ]
          ]
        },
        {
          "id": "Mitch Baker",
          "contents": [
            "Alloy Wheels of Steel",
            "Messing with the Man",
            "Hog Tied"
          ]
        }
      ]
    },
    {
      "id": "Asset Missions",
      "contents": [
        {
          "id": "Boatyard",
          "contents": [
            [
              "Checkpoint Charlie",
              {
                "type": "info",
                "content": "There are 6 difficulty levels, but only the first needs to passed for 100% completion"
              }
            ]
          ]
        },
        {
          "id": "Cherry Popper Ice Cream Factory",
          "contents": [
            [
              "Distribution",
              {
                "type": "info",
                "content": "50 ice creams must be sold during a single run for the mission to be considered complete"
              }
            ]
          ]
        },
        {
          "id": "InterGlobal Films",
          "contents": [
            "Recruitment Drive",
            "Dildo Dodo",
            [
              "Martha's Mug Shot",
              {
                "type": "uv",
                "content": "EC Gold Stretch"
              },
              {
                "type": "uv",
                "content": "EC/FP Gold Stretch; Japanese version exclusive, requires 1 mission failure"
              }
            ],
            "G-Spotlight"
          ]
        },
        {
          "id": "Kaufman Cabs",
          "contents": [
            "V.I.P.",
            "Friendly Rivalry",
            "Cabmageddon"
          ]
        },
        {
          "id": "Print Works",
          "contents": [
            "Spilling the Beans",
            [
              "Hit the Courier",
              {
                "type": "uv",
                "content": "EC Black Sentinel"
              }
            ]
          ]
        },
        {
          "id": "Malibu Club",
          "contents": [
            [
              "No Escape?",
              {
                "type": "warn",
                "content": "This mission, along with \"Cop Land\", and \"The Job\", should be completed before \"Two Bit Hit\" to prevent the Havana outfit from being unobtainable."
              }
            ],
            "The Shootist",
            [
              "The Driver",
              {
                "type": "uv",
                "content": "BP/EP/FP Sabre Turbo; requires a mission failure"
              }
            ],
            [
              "The Job",
              {
                "type": "warn",
                "content": "This mission, along with \"Cop Land\", and \"No Escape?\", should be completed before \"Two Bit Hit\" to prevent the Havana outfit from being unobtainable."
              }
            ]
          ]
        },
        {
          "id": "Phil Cassidy",
          "contents": [
            [
              "Gun Runner",
              {
                "type": "uv",
                "content": "EC White Walton"
              }
            ],
            "Boomshine Saigon"
          ]
        },
        {
          "id": "The Pole Position Club",
          "free_text": [
            "Differently from other assets in the game, the Pole Position Club does not provide missions but rather",
            "requires the player to spend at least $300 watching strippers in the \"Dance Room\", corresponding to",
            "around 1 in-game hour of watch time. This does not have to be completed in one single seating."
          ],
          "contents": [
            "Acquire Asset"
          ]
        },
        {
          "id": "Protection Ring",
          "contents": [
            "Shakedown",
            [
              "Bar Brawl",
              {
                "type": "uv",
                "content": "BP/DP/EP/FP PCJ 600, DP does not register on bikes"
              }
            ],
            [
              "Cop Land",
              {
                "type": "warn",
                "content": "This mission, along with \"No Escape?\", and \"The Job\", should be completed before \"Two Bit Hit\" to prevent the Havana outfit from being unobtainable."
              }
            ]
          ]
        },
        {
          "id": "Sunshine Autos",
          "free_text": [
            "Differently from other assets in the game, Sunshine Autos does not have missions but rather requires the",
            "delivery of certain vehicles to the A+B Autos garage near Vice Street Racer. The various vehicles are",
            "split into multiple lists, which must be completed linearly. This set of missions is also known as",
            "\"Sunshine Autos Import Garage\". For every completed list, the money generated by the asset will",
            "increase and a new vehicle will spawn inside the showroom."
          ],
          "contents": [
            {
              "id": "List 1: Street Cars and SUVs",
              "contents": [
                [
                  "Blista Compact",
                  {
                    "type": "fixed_spawn",
                    "contents": [
                      "Hyman Memorial Stadium's parking spots, Downtown (sometimes)"
                    ]
                  },
                  {
                    "type": "traffic_spawn",
                    "contents": [
                      "Ocean Beach",
                      "Washington Beach"
                    ]
                  }
                ],
                [
                  "Esperanto",
                  {
                    "type": "fixed_spawn",
                    "contents": [
                      "Moist Palm Hotel's parking lot, Downtown (sometimes)",
                      "Hyman Memorial Stadium's parking spots, Downtown (sometimes)"
                    ]
                  },
                  {
                    "type": "traffic_spawn",
                    "contents": [
                      "Downtown",
                      "Little Haiti",
                      "Little Havana"
                    ]
                  }
                ],
                [
                  "Idaho",
                  {
                    "type": "fixed_spawn",
                    "contents": [
                      "North Point Mall, Vice Point (sometimes)"
                    ]
                  },
                  {
                    "type": "traffic_spawn",
                    "contents": [
                      "Downtown",
                      "Little Haiti",
                      "Little Havana",
                      "Viceport"
                    ]
                  }
                ],
                [
                  "Landstalker",
                  {
                    "type": "fixed_spawn",
                    "contents": [
                      "Dirt Track, Downtown (starts 'Trial by Dirt')",
                      "Mansion with a tennis court, Starfish Island"
                    ]
                  },
                  {
                    "type": "traffic_spawn",
                    "contents": [
                      "Little Haiti",
                      "Starfish Island"
                    ]
                  }
                ],
                [
                  "Rancher",
                  {
                    "type": "traffic_spawn",
                    "contents": [
                      "Around the North Point Mall, Vice Point"
                    ]
                  }
                ],
                [
                  "Stallion",
                  {
                    "type": "fixed_spawn",
                    "contents": [
                      "Multistory car park, Ocean Beach (starts 'Cone Crazy')"
                    ]
                  },
                  {
                    "type": "traffic_spawn",
                    "contents": [
                      "Downtown",
                      "Little Haiti",
                      "Little Havana"
                    ]
                  }
                ]
              ]
            },
            {
              "id": "List 2: Expensive Cars",
              "contents": [
                [
                  "Admiral",
                  {
                    "type": "fixed_spawn",
                    "contents": [
                      "Next to the stairs of Vercetti Estate, alternating with an Stretch, Starfish Island"
                    ]
                  }
                ],
                [
                  "Sabre",
                  {
                    "type": "fixed_spawn",
                    "contents": [
                      "North Point Mall parking lot, Vice Point (sometimes)"
                    ]
                  },
                  {
                    "type": "traffic_spawn",
                    "contents": [
                      "Downtown",
                      "Little Haiti"
                    ]
                  }
                ],
                [
                  "Sentinel",
                  {
                    "type": "fixed_spawn",
                    "contents": [
                      "Sunshine Autos, Little Havana"
                    ]
                  },
                  {
                    "type": "traffic_spawn",
                    "contents": [
                      "Ocean Beach",
                      "Washington Beach",
                      "Vice Point"
                    ]
                  }
                ],
                [
                  "Stretch",
                  {
                    "type": "fixed_spawn",
                    "contents": [
                      "Next to the stairs of Vercetti Estate, alternating with an Admiral, Starfish Island",
                      "A mansion on the north-west side of the island, Starfish Island"
                    ]
                  },
                  {
                    "type": "traffic_spawn",
                    "contents": [
                      "Vice City Beach",
                      "Vice City Mainland"
                    ]
                  }
                ],
                [
                  "Virgo",
                  {
                    "type": "traffic_spawn",
                    "contents": [
                      "Downtown (rarely)",
                      "Prawn Island (rarely)",
                      "Vice Point (rarely)"
                    ]
                  }
                ],
                [
                  "Washington",
                  {
                    "type": "fixed_spawn",
                    "contents": [
                      "North Point Mall's parking lot, Vice Point (sometimes)"
                    ]
                  },
                  {
                    "type": "traffic_spawn",
                    "contents": [
                      "Downtown",
                      "Francis International Airport",
                      "Ocean Beach",
                      "Washington Beach"
                    ]
                  }
                ]
              ]
            },
            {
              "id": "List 3: Sport Cars",
              "contents": [
                [
                  "Banshee",
                  {
                    "type": "fixed_spawn",
                    "contents": [
                      "Mansion with the pool shaped like Rockstar's logo, Starfish Island",
                      "Blue building north of the Pay 'n' Spray, Washington Beach"
                    ]
                  },
                  {
                    "type": "traffic_spawn",
                    "contents": [
                      "Starfish Island"
                    ]
                  }
                ],
                [
                  "Cheetah",
                  {
                    "type": "fixed_spawn",
                    "contents": [
                      "Near the piers in Ocean Bay Marina, Ocean Beach",
                      "House just to the north of the Vercetti Estate's entrance, Starfish Island",
                      "On the left of Little Havana Police Station, Little Havana (VCPD Cheetah, but it is accepted anyway)"
                    ]
                  },
                  {
                    "type": "traffic_spawn",
                    "contents": [
                      "Driving around on Ocean Drive, in all districts it goes through",
                      "Starfish Island"
                    ]
                  }
                ],
                [
                  "Comet",
                  {
                    "type": "fixed_spawn",
                    "contents": [
                      "In front of Leaf Links Golf Club, Leaf Links",
                      "Inside a garage of a mansion on the island, Starfish Island"
                    ]
                  },
                  {
                    "type": "traffic_spawn",
                    "contents": [
                      "Downtown",
                      "Ocean Beach",
                      "Starfish Island"
                    ]
                  }
                ],
                [
                  "Infernus",
                  {
                    "type": "fixed_spawn",
                    "contents": [
                      "Near the stairs leading to the entrance of the Vercetti Estate, Starfish Island",
                      "Inside the North Point Mall, Vice Point (although it cannot be driven out)",
                      "North Point Mall's parking lot, Vice Point (sometimes)"
                    ]
                  },
                  {
                    "type": "traffic_spawn",
                    "contents": [
                      "Ocean Beach"
                    ]
                  }
                ],
                [
                  "Phoenix",
                  {
                    "type": "fixed_spawn",
                    "contents": [
                      "North-western mansion on the island, Starfish Island",
                      "Parked at Links View Apartment, Vice Point (sometimes)"
                    ]
                  },
                  {
                    "type": "traffic_spawn",
                    "contents": [
                      "Ocean Beach"
                    ]
                  }
                ],
                [
                  "Stinger",
                  {
                    "type": "fixed_spawn",
                    "contents": [
                      "Central block of the island, Starfish Island"
                    ]
                  },
                  {
                    "type": "traffic_spawn",
                    "contents": [
                      "North area of Downtown",
                      "In the area of Leaf Links Golf Club, Leaf Links"
                    ]
                  }
                ]
              ]
            },
            {
              "id": "List 4: Gang Cars and Oddballs",
              "contents": [
                [
                  "Baggage Handler",
                  {
                    "type": "fixed_spawn",
                    "contents": [
                      "Near the helipad, Francis International Airport",
                      "South of the terminal by some baggage, Francis International Airport",
                      "Between a ramp and the west wall, Francis International Airport",
                      "Between two hangars on the west side, Francis International Airport"
                    ]
                  },
                  {
                    "type": "traffic_spawn",
                    "contents": [
                      "Airport terminal, Francis International Airport",
                      "Fort Baxter Air Base, Francis International Airport"
                    ]
                  }
                ],
                [
                  "Caddy",
                  {
                    "type": "fixed_spawn",
                    "contents": [
                      "Near the lighthouse in a bush, Ocean Beach"
                    ]
                  },
                  {
                    "type": "traffic_spawn",
                    "contents": [
                      "Golf course, Leaf Links"
                    ]
                  }
                ],
                [
                  "Cuban Hermes",
                  {
                    "type": "traffic_spawn",
                    "contents": [
                      "Little Havana"
                    ]
                  }
                ],
                [
                  "Mr. Whoopee",
                  {
                    "type": "fixed_spawn",
                    "contents": [
                      "Cherry Popper Ice Cream Factory after having been acquired, Little Havana (starts 'Distribution')"
                    ]
                  }
                ],
                [
                  "Pizza Boy",
                  {
                    "type": "fixed_spawn",
                    "contents": [
                      "The Well Stacked Pizza Co., Downtown",
                      "The Well Stacked Pizza Co., Little Haiti",
                      "The Well Stacked Pizza Co., Vice Point"
                    ]
                  }
                ],
                [
                  "Voodoo",
                  {
                    "type": "fixed_spawn",
                    "contents": [
                      "Outside of Auntie Poulet's shack, Little Haiti"
                    ]
                  },
                  {
                    "type": "traffic_spawn",
                    "contents": [
                      "Little Haiti"
                    ]
                  }
                ]
              ]
            }
          ]
        }
      ]
    },
    {
      "id": "Mr. Black's Assassination Missions",
      "contents": [
        "Road Kill",
        "Waste the Wife",
        [
          "Autocide",
          {
            "type": "uv",
            "content": "EC White PCJ 600"
          },
          {
            "type": "uv",
            "content": "EC Black and Red Bobcat"
          },
          {
            "type": "uv",
            "content": "EC Blue PCJ 600"
          }
        ],
        [
          "Check Out at the Check In",
          {
            "type": "uv",
            "content": "EC/H Black Admiral (1/2)"
          }
        ],
        [
          "Loose Ends",
          {
            "type": "uv",
            "content": "EC Black Pony"
          },
          {
            "type": "uv",
            "content": "EC Black Admiral (2/2)"
          },
          {
            "type": "uv",
            "content": "EC Blue and White Maverick"
          }
        ]
      ]
    },
    {
      "id": "Vice Street Racer",
      "contents": [
        [
          "Terminal Velocity",
          {
            "type": "uv",
            "content": "FP Banshee (1/6)"
          },
          {
            "type": "uv",
            "content": "FP Cheetah (1/6)"
          },
          {
            "type": "uv",
            "content": "FP Infernus (1/6)"
          }
        ],
        [
          "Ocean Drive",
          {
            "type": "uv",
            "content": "FP Banshee (2/6)"
          },
          {
            "type": "uv",
            "content": "FP Cheetah (2/6)"
          },
          {
            "type": "uv",
            "content": "FP Infernus (2/6)"
          }
        ],
        [
          "Border Run",
          {
            "type": "uv",
            "content": "FP Banshee (3/6)"
          },
          {
            "type": "uv",
            "content": "FP Cheetah (3/6)"
          },
          {
            "type": "uv",
            "content": "FP Infernus (3/6)"
          }
        ],
        [
          "Capital Cruise",
          {
            "type": "uv",
            "content": "FP Banshee (4/6)"
          },
          {
            "type": "uv",
            "content": "FP Cheetah (4/6)"
          },
          {
            "type": "uv",
            "content": "FP Infernus (4/6)"
          }
        ],
        [
          "Tour!",
          {
            "type": "uv",
            "content": "FP Banshee (5/6)"
          },
          {
            "type": "uv",
            "content": "FP Cheetah (5/6)"
          },
          {
            "type": "uv",
            "content": "FP Infernus (5/6)"
          }
        ],
        [
          "V.C. Endurance",
          {
            "type": "uv",
            "content": "FP Banshee (6/6)"
          },
          {
            "type": "uv",
            "content": "FP Cheetah (6/6)"
          },
          {
            "type": "uv",
            "content": "FP Infernus (6/6)"
          }
        ]
      ]
    },
    {
      "id": "Hyman Memorial Stadium Events",
      "contents": [
        "Bloodring",
        [
          "Dirtring",
          {
            "type": "uv",
            "content": "BP/DP/EP/FP Sanchez; requires OM0 and replays, DP does not register on bikes"
          }
        ],
        [
          "Hotring",
          {
            "type": "info",
            "content": "It is required to get first place to consider the event as complete, not only the podium"
          },
          {
            "type": "uv",
            "content": "EP/FP Hotring Racer; requires an event failure (does not count on stats)"
          },
          {
            "type": "uv",
            "content": "U/EP/FP Hotring Racer A; requires an event failure (does not count on stats), OM0, and replays"
          },
          {
            "type": "uv",
            "content": "U/EP/FP Hotring Racer B; requires an event failure (does not count on stats), OM0, and replays"
          }
        ]
      ]
    },
    {
      "id": "Chopper Checkpoint",
      "contents": [
        "Downtown",
        "Little Haiti",
        "Ocean Beach",
        "Vice Point"
      ]
    },
    {
      "id": "Off-road Missions",
      "contents": [
        "PCJ Playground",
        "Cone Crazy",
        [
          "Trial by Dirt",
          {
            "type": "uv",
            "content": "EC Black Sanchez; requires an event failure (does not count on stats)"
          }
        ],
        [
          "Test Track",
          {
            "type": "uv",
            "content": "EC Black Rancher; requires an event failure (does not count on stats)"
          }
        ]
      ]
    },
    {
      "id": "Remote Controlled Vehicle Missions",
      "contents": [
        [
          "RC Bandit Race",
          {
            "type": "uv",
            "content": "U/EC Blue and White RC Bandit; requires an event failure (does not count on stats), and OM0"
          },
          {
            "type": "uv",
            "content": "U/EC Red and White RC Bandit; requires an event failure (does not count on stats), and OM0"
          },
          {
            "type": "uv",
            "content": "U/EC Yellow and White RC Bandit; requires an event failure (does not count on stats), and OM0"
          }
        ],
        [
          "RC Baron Race",
          {
            "type": "uv",
            "content": "U RC Baron; requires an event failure (does not count on stats), and OM0"
          }
        ],
        "RC Raider Pickup"
      ]
    },
    {
      "id": "Vehicle Missions",
      "contents": [
        {
          "id": "Firefighter",
          "free_text": [
            "The mission is considered complete when all 12 levels have been completed without interruptions."
          ],
          "contents": [
            "Reached Level 12"
          ]
        },
        {
          "id": "Paramedic",
          "free_text": [
            "The mission is considered complete when all 12 levels have been completed without interruptions."
          ],
          "contents": [
            "Reached Level 12"
          ]
        },
        {
          "id": "Pizza Boy",
          "free_text": [
            "The mission is considered complete when all 10 levels have been completed without interruptions."
          ],
          "contents": [
            "Reached Level 10"
          ]
        },
        {
          "id": "Taxi Driver",
          "free_text": [
            "The mission is considered passed when at least 100 fares have been completed. They do not have to be",
            "completed in one seating and it is not required to split them between islands, allowing for completion",
            "even at the beginning of the game."
          ],
          "contents": [
            100
          ]
        },
        {
          "id": "Vigilante",
          "free_text": [
            "The mission is considered complete when all 12 levels have been completed without interruptions."
          ],
          "contents": [
            "Reached Level 12"
          ]
        }
      ]
    },
    {
      "id": "Mini-games",
      "contents": [
        [
          "Rifle Range",
          {
            "type": "info",
            "content": "Completing this mini-game requires gathering 45 points or more during free roam: the points collected during \"The Shootist\" do not count towards completion."
          }
        ]
      ]
    },
    {
      "id": "Store Robberies",
      "free_text": [
        "Any store robbery can be considered complete when the first cash drop appears on the counter. It is not",
        "necessary to wait until all four cash drops have appeared or to take the money afterwards."
      ],
      "contents": [
        {
          "id": "Vice City Beach",
          "contents": [
            [
              "Bunch of Tools, Washington Beach",
              {
                "type": "location",
                "content": "Lone building near the bridge that leads to Starfish Island from Washington Beach"
              }
            ],
            [
              "Corner Store, Vice Point",
              {
                "type": "location",
                "content": "On the four-way highway that leads to Prawn Island, in a big pink-shaded building with a wide staircase"
              }
            ],
            [
              "Dispensary, Vice Point",
              {
                "type": "location",
                "content": "Road to the left of the four-way highway that leads to Prawn Island, coming from El Swanko Casa"
              }
            ],
            [
              "Family Jewels, Vice Point",
              {
                "type": "location",
                "content": "Floor level of North Point Mall, on the east side of the building"
              }
            ],
            [
              "Gash, Vice Point",
              {
                "type": "location",
                "content": "Floor level of North Point Mall, at the south end of the building"
              }
            ],
            [
              "The Jewelers, Vice Point",
              {
                "type": "location",
                "content": "North of The Well Stacked Pizza Co., on the road to the right of it coming from the Pole Position Club"
              }
            ],
            [
              "Tooled Up, Vice Point",
              {
                "type": "location",
                "content": "Floor level of North Point Mall, on the west side of the building, next to Ammunation"
              }
            ],
            [
              "Vinyl Countdown, Vice Point",
              {
                "type": "location",
                "content": "Top level of North Point Mall, on the west side on the bridge connection the two wings of the building"
              }
            ]
          ]
        },
        {
          "id": "Vice City Mainland",
          "contents": [
            [
              "Brownstone Laundromat, Little Havana",
              {
                "type": "location",
                "content": "In the corner of the first road that delimits the Little Havana neighborhood, somewhat to the east of Print Works"
              }
            ],
            [
              "Café Robina, Little Havana",
              {
                "type": "location",
                "content": "Essentially where all Umberto Robina missions can be triggered, near the Francis International Airport shortcut"
              }
            ],
            [
              "Calleggi Delicatessen Restaurant, Little Havana",
              {
                "type": "location",
                "content": "North of the VCPD Little Havana station"
              }
            ],
            [
              "Dispensary, Downtown",
              {
                "type": "location",
                "content": "East of The Well Stacked Pizza Co., next to Rock City"
              }
            ],
            [
              "Ryton Aide, Little Haiti",
              {
                "type": "location",
                "content": "Next to the Pay 'n' Spray, south of the Leaf Links bridge"
              }
            ],
            [
              "Screw This, Little Havana",
              {
                "type": "location",
                "content": "On the left side of the road coming from the 4-lane highway, turning at the VCPD Little Havana station"
              }
            ],
            [
              "The Jewelers, Downtown",
              {
                "type": "location",
                "content": "On the right side coming from The Well Stacked Pizza Co., next to Market & Deli, opposite Jocksport"
              }
            ]
          ]
        }
      ]
    },
    {
      "id": "Safehouses",
      "free_text": [
        "The \"Ocean View Hotel\" and \"Vercetti Estate\" safehouses are acquired by the player as they progress",
        "through the story, whereas the other ones have to be bought separately. Nevertheless, the \"Hyman Condo\"",
        "has the same benefits of an official safehouse, with weapons spawning as you obtain hidden packages."
      ],
      "contents": [
        {
          "id": "Downtown",
          "contents": [
            "Hyman Condo",
            "Skumole Shack"
          ]
        },
        {
          "id": "Ocean Beach",
          "contents": [
            "Ocean Heights Apartment",
            "Ocean View Hotel"
          ]
        },
        {
          "id": "Starfish Island",
          "contents": [
            "Vercetti Estate"
          ]
        },
        {
          "id": "Vice Point",
          "contents": [
            "3321 Vice Point",
            "El Swanko Casa",
            "Links View Apartment"
          ]
        },
        {
          "id": "Washington Beach",
          "contents": [
            "1102 Washington Street"
          ]
        }
      ]
    },
    {
      "id": "Rampages",
      "contents": [
        {
          "id": "Downtown",
          "contents": [
            [
              "Kill 40 gang members in 2 minutes using Molotov Cocktails",
              {
                "type": "location",
                "content": "On top of the stairs of the building between VCN and Roxor International"
              }
            ],
            [
              "Kill 30 gang members in 2 minutes using a Minigun",
              {
                "type": "location",
                "content": "In the courtyard of V.A.J. Finance, where you initially meet Candy Suxx"
              }
            ],
            [
              "Kill 25 gang members in 2 minutes using a Python",
              {
                "type": "location",
                "content": "On top of a flight of stairs on the building on the right side of the road coming from Downtown VCPD, right in front of Ammu-Nation"
              }
            ],
            [
              "Kill 30 gang members in 2 minutes using a Flamethrower",
              {
                "type": "location",
                "content": "On the Hyman Memorial Stadium's private helipad, situated on its right coming from the Hyman Condo"
              }
            ],
            [
              "Drive-by and waste 35 gang members in 2 minutes using an Uz-I",
              {
                "type": "location",
                "content": "Alleyway on the left of The Well Stacked Pizza Co., after the first corner, before the Washington spawn point"
              }
            ],
            [
              "Kill 30 gang members in 2 minutes using a M60",
              {
                "type": "location",
                "content": "Next to the north-most pillar of the Moist Palms Hotel, near the hotel's parking lot"
              }
            ]
          ]
        },
        {
          "id": "Escobar International",
          "contents": [
            [
              "Kill 25 gang members in 2 minutes using a S.P.A.S. 12",
              {
                "type": "location",
                "content": "Inside Terminal A building, underneath the western gate"
              }
            ],
            [
              "Destroy 15 vehicles in 2 minutes using a Rocket Launcher",
              {
                "type": "location",
                "content": "On the roof of Terminal A"
              }
            ],
            [
              "Destroy 15 vehicles in 2 minutes using a Minigun",
              {
                "type": "location",
                "content": "To the east of Fort Baxter Air Base, near a small tree"
              }
            ]
          ]
        },
        {
          "id": "Little Haiti",
          "contents": [
            [
              "Kill 35 gang members in 2 minutes using a S.P.A.S. 12",
              {
                "type": "location",
                "content": "South of the Junkyard, crossing the red bridge, and approaching the Vice City Port Authority office"
              }
            ],
            [
              "Kill 30 gang members in 2 minutes using a Tec9",
              {
                "type": "location",
                "content": "Behind the small green house on the left side of the road that begins with the \"Life's a Bitch\" sign, before the Print Works wooden wall"
              }
            ]
          ]
        },
        {
          "id": "Little Havana",
          "contents": [
            [
              "Kill 25 gang members in 2 minutes using a Shotgun",
              {
                "type": "location",
                "content": "In one of the basketball courts in the middle of a block of houses to the south-east of the Brownstone Laundromat"
              }
            ],
            [
              "Kill 10 gang members in 2 minutes using a Katana",
              {
                "type": "location",
                "content": "Alleyway behind El Banco Corrupto Grande"
              }
            ],
            [
              "Gun down 20 gang members in 2 minutes using a Sniper Rifle",
              {
                "type": "location",
                "content": "On the top of the West Haven Community Healthcare Center"
              }
            ],
            [
              "Kill 20 gang members in 2 minutes using a Ruger",
              {
                "type": "location",
                "content": "On the roof of a building on the left side of the intersection of the road that comes from Sunshine Autos"
              }
            ]
          ]
        },
        {
          "id": "Ocean Beach",
          "contents": [
            [
              "Destroy 10 vehicles in 2 minutes using a Rocket Launcher",
              {
                "type": "location",
                "content": "Stilt Houses in the ocean"
              }
            ],
            [
              "Kill 30 gang members in 2 minutes using Molotov Cocktails",
              {
                "type": "location",
                "content": "On the path that leads from Lance's Apartment to the Lighthouse"
              }
            ],
            [
              "Run over and kill 30 gang members in 2 minutes",
              {
                "type": "location",
                "content": "On the beach north of the lighthouse"
              }
            ],
            [
              "Kill 25 gang members in 2 minutes using a .308 Sniper",
              {
                "type": "location",
                "content": "On the roof of a building adjacent to the multistory car park where \"Cone Crazy\" takes place"
              }
            ],
            [
              "Kill 10 gang members in 2 minutes using a Katana",
              {
                "type": "location",
                "content": "In the courtyard of the east-most courtyard of the block of houses north of the car park where a Banshee spawns"
              }
            ],
            [
              "Kill 20 gang members in 2 minutes using a Chainsaw",
              {
                "type": "location",
                "content": "Behind an ajar gate near Rafael's shop"
              }
            ],
            [
              "Kill 25 gang members in 2 minutes using a M4",
              {
                "type": "location",
                "content": "Next to the western tower of Ocean View Medical Foundation"
              }
            ],
            [
              "Kill 25 gang members in 2 minutes using a Shotgun",
              {
                "type": "location",
                "content": "Top floor of the Washington Mall parking lot"
              }
            ]
          ]
        },
        {
          "id": "Starfish Island",
          "contents": [
            [
              "Run over and kill 35 gang members in 2 minutes",
              {
                "type": "location",
                "content": "Next to an Admiral spawning in the west-most house of the island"
              }
            ]
          ]
        },
        {
          "id": "Vice Point",
          "contents": [
            [
              "Kill 30 gang members in 2 minutes using a S.P.A.S. 12",
              {
                "type": "location",
                "content": "Near the south-east corner of Standing Vice Point, near the walkway heading to the beach"
              }
            ],
            [
              "Kill 10 gang members in 2 minutes using a .308 Sniper",
              {
                "type": "location",
                "content": "At the top of the diving board behind Standing Vice Point"
              }
            ],
            [
              "Drive-by and waste 35 gang members in 2 minutes using an Uz-I",
              {
                "type": "location",
                "content": "In the Vice Point cul-de-sac, behind the aisle with some trees on it"
              }
            ],
            [
              "Kill 20 gang members in 2 minutes using a Chainsaw",
              {
                "type": "location",
                "content": "Under the bridge to Leaf Links, heading east from Mercedes's apartment"
              }
            ],
            [
              "Kill 25 gang members in 2 minutes using a Python",
              {
                "type": "location",
                "content": "Behind a building located just south of 3321 Vice Point"
              }
            ],
            [
              "Kill 35 gang members in 2 minutes using a M4",
              {
                "type": "location",
                "content": "Right to the left of the eastern entrance of the North Point Mall"
              }
            ],
            [
              "Kill 30 gang members in 2 minutes using a Rocket Launcher",
              {
                "type": "location",
                "content": "In the bushes outside Vinyl Countdown, inside the North Point Mall"
              }
            ],
            [
              "Drive-by and waste 30 gang members in 2 minutes using an Uz-I",
              {
                "type": "location",
                "content": "Behind the north-west-most building of Vice Point, almost opposite the Mall's parking lot"
              }
            ]
          ]
        },
        {
          "id": "Viceport",
          "contents": [
            [
              "Kill 35 gang members in 2 minutes using Grenades",
              {
                "type": "location",
                "content": "Behind Hooker Inn Express"
              }
            ],
            [
              "Destroy 15 vehicles in 2 minutes using a Rocket Launcher",
              {
                "type": "location",
                "content": "On the docked ship accessible right after the gate of the port"
              }
            ]
          ]
        },
        {
          "id": "Washington Beach",
          "contents": [
            [
              "Kill 25 gang members in 2 minutes using a MP5",
              {
                "type": "location",
                "content": "Near the entrance of the smaller building of StarView Heights"
              }
            ]
          ]
        }
      ]
    },
    {
      "id": "Unique Jumps",
      "free_text": [
        "It is important to note that many of these Unique Jumps can only be completed with a fast bike, such as a PCJ",
        "600. For this reason, it is suggested to "
      ],
      "contents": [
        {
          "id": "Vice City Beach",
          "contents": [
            [
              "Ocean Beach (1/8)",
              {
                "type": "location",
                "content": "Jumping from a wooden ramp on Pier 1, over a body of water onto Pier 2"
              }
            ],
            [
              "Ocean Beach (2/8)",
              {
                "type": "location",
                "content": "Jumping from a wooden ramp on Pier 2 right after the landing spot of Ocean Beach's first jump, over a body of water onto Pier 3"
              }
            ],
            [
              "Ocean Beach (3/8)",
              {
                "type": "location",
                "content": "Jumping from an alley near the Pay 'n' Spray using a set of stairs next to a Banshee as the ramp, to land on the pink roof with a Sea Sparrow"
              }
            ],
            [
              "Ocean Beach (4/8)",
              {
                "type": "location",
                "content": "Jumping from Ocean Beach's third jump's pink roof's south-looking ramp, over the next rooftop and landing onto the street"
              }
            ],
            [
              "Ocean Beach (5/8)",
              {
                "type": "location",
                "content": "From the south-facing ramp on top of the Washington Avenue Parking Lot, over to the roof of the building on the other side of the alley"
              }
            ],
            [
              "Ocean Beach (6/8)",
              {
                "type": "location",
                "content": "Alley behind the Ocean View Hotel, with a wooden ramp under an air conditioner, jumping over the street to the other alley"
              }
            ],
            [
              "Ocean Beach (7/8)",
              {
                "type": "location",
                "content": "From the parking lot on the roof of the Washington Mall, jumping off a \"ramp\" across the street to the rooftop below"
              }
            ],
            [
              "Ocean Beach (8/8)",
              {
                "type": "location",
                "content": "From the rooftop you land on with Ocean Beach's seventh jump, up the stairs and then onto the north-eastern vent as the ramp to reach the street below"
              }
            ],
            [
              "Washington Beach (1/6)",
              {
                "type": "location",
                "content": "From the alley behind the Moonlite Hotel, jumping over a pile of wood over the street and into the next alley"
              }
            ],
            [
              "Washington Beach (2/6)",
              {
                "type": "location",
                "content": "Alley behind the Colon Hotel, up using a stairway on the right as the ramp to jump across the street into the next alley"
              }
            ],
            [
              "Washington Beach (3/6)",
              {
                "type": "location",
                "content": "From the stairway of an unnamed hotel, looking towards the VCPD Station, to jump onto the roof across the street"
              }
            ],
            [
              "Washington Beach (4/6)",
              {
                "type": "location",
                "content": "From the alley behind the Deacon Hotel, using a stairway on the right to jump over the street and into the next alley"
              }
            ],
            [
              "Washington Beach (5/6)",
              {
                "type": "location",
                "content": "A wooden ramp on the left of the first intersection coming from the Malibu Club, jumping on the rooftop"
              }
            ],
            [
              "Washington Beach (6/6)",
              {
                "type": "location",
                "content": "From a concrete utilities structure on the road that leads to the parking lot of the VCPD station, jumping over water to behind Bunch of Tools"
              }
            ],
            [
              "Vice Point (1/4)",
              {
                "type": "location",
                "content": "From a dirt pile next to Bunch of Tools, looking towards Washington Beach's VCPD station, jumping over water to the ramp used in Washington Beach's sixth jump"
              }
            ],
            [
              "Vice Point (2/4)",
              {
                "type": "location",
                "content": "From a concrete utilities structure on the right side just before the intersection when coming from the Malibu Club, over the bridge to the street after"
              }
            ],
            [
              "Vice Point (3/4)",
              {
                "type": "location",
                "content": "From Avery's construction site, using a north-facing red steel girder to jump on the street below"
              }
            ],
            [
              "Vice Point (4/4)",
              {
                "type": "location",
                "content": "From a concrete utilities structure facing west right outside the Malibu Club, jumping over the river to the opposite bank"
              }
            ],
            [
              "Prawn Island",
              {
                "type": "location",
                "content": "From a ramp facing the Interglobal Film Studios on the roof of the south-most building, jumping over the street onto the roof of the Studios' buildings"
              }
            ]
          ]
        },
        {
          "id": "Starfish Island",
          "contents": [
            [
              "Starfish Island",
              {
                "type": "location",
                "content": "Up the stairs on the south side of an orange-brown-looking house on the north side of the island, jumping into a lawn after a couple of hedges"
              }
            ]
          ]
        },
        {
          "id": "Vice City Mainland",
          "contents": [
            [
              "Downtown (1/4)",
              {
                "type": "location",
                "content": "From the stairway on the right of the road coming from the VCPD Station, facing Ammu-Nation, and jumping over the road and onto the shop's roof"
              }
            ],
            [
              "Downtown (2/4)",
              {
                "type": "location",
                "content": "From inside the Rockstar Building, smashing through the window to jump over the street and into the hole of the building in front"
              },
              {
                "type": "info",
                "content": "Completion of this Unique Jump is possible only during or after the mission \"G-Spotlight\""
              }
            ],
            [
              "Downtown (3/4)",
              {
                "type": "location",
                "content": "From the roof of the Schuman Health Care Center, jumping onto a long white ramp to land on the building across the street"
              },
              {
                "type": "info",
                "content": "Completion of this Unique Jump is possible only during or after the mission \"G-Spotlight\""
              }
            ],
            [
              "Downtown (4/4)",
              {
                "type": "location",
                "content": "From the building just north of the one with the spotlight, using a huge ramp to jump onto the building just south of it"
              },
              {
                "type": "info",
                "content": "Completion of this Unique Jump is possible only during or after the mission \"G-Spotlight\""
              }
            ],
            [
              "Little Haiti (1/3)",
              {
                "type": "location",
                "content": "In an alley facing south, up a wooden ramp that leans on some shipping containers, to jump over the Riverside Pavilion onto the street"
              }
            ],
            [
              "Little Haiti (2/3)",
              {
                "type": "location",
                "content": "From a wooden ramp to the south-west of Auntie Poulet's shack, jumping over the wreck of a schoolbus onto the street"
              }
            ],
            [
              "Little Haiti (3/3)",
              {
                "type": "location",
                "content": "Between two houses, facing to the east towards a Police Bribe, to jump on the rooftop and then onto the street"
              }
            ],
            [
              "Little Havana",
              {
                "type": "location",
                "content": "From the roof of one of the shops of Calle 8 Cafeteria, using some air conditioners as a ramp to jump over the street to the opposite roof"
              }
            ],
            [
              "Escobar International Airport (1/8)",
              {
                "type": "location",
                "content": "Using the wave of the Vice Surf advertisement in front of Terminal A, to jump on the roof of the Terminal"
              }
            ],
            [
              "Escobar International Airport (2/8)",
              {
                "type": "location",
                "content": "From an aircraft access stair parked facing towards the Vice City Transport Police building, jumping on the roof of said building"
              }
            ],
            [
              "Escobar International Airport (3/8)",
              {
                "type": "location",
                "content": "From one of the runways, facing the Terminal and jumping from an aircraft access stair next to a parked jet to go beyond the air-bridge and onto the tarmac"
              }
            ],
            [
              "Escobar International Airport (4/8)",
              {
                "type": "location",
                "content": "Just north of the landing point for the airport's third jump, another aircraft access stair that leads to a jump over the same air-bridge onto the tarmac"
              }
            ],
            [
              "Escobar International Airport (5/8)",
              {
                "type": "location",
                "content": "From an aircraft access stair parked near the left air-bridge and facing west, to jump over said structure and onto the tarmac"
              }
            ],
            [
              "Escobar International Airport (6/8)",
              {
                "type": "location",
                "content": "At the end of the angled runway, facing towards the land, using the steeper slope as the ramp that leads over the street into the opposite parking lot"
              }
            ],
            [
              "Escobar International Airport (7/8)",
              {
                "type": "location",
                "content": "Facing towards the radar dish looking at the junction, using a yellow runway marker sign to jump over the radar building and onto the tarmac"
              }
            ],
            [
              "Escobar International Airport (8/8)",
              {
                "type": "location",
                "content": "Facing towards the radar dish away from the junction, using an aircraft access stair to jump over the radar building and onto the tarmac"
              }
            ]
          ]
        }
      ]
    },
    {
      "id": "Hidden Packages",
      "contents": [
        100
      ]
    }
  ]
}
